#		z = 0.001	z = 0.001514	z = 0.002292	z = 0.00347	z = 0.005253	z = 0.007953	z = 0.01204	z = 0.01823	z = 0.02759	z = 0.04178	z = 0.06325	z = 0.09575	z = 0.145	z = 0.2195	z = 0.3322	z = 0.503	z = 0.7615	z = 1.153	z = 1.745	z = 2.642	z = 4	
# M_200,c	dN/dOmega(<M_max, >z_min) (all following columns) 
# [Msol]	[GeV cm^{-2} s^{-1} sr^{-1}] (all following columns)
1.0000e+10	0.00e+00	2.06e-13	5.17e-13	9.86e-13	1.69e-12	2.75e-12	4.32e-12	6.64e-12	1.00e-11	1.49e-11	2.17e-11	3.08e-11	4.27e-11	5.67e-11	7.16e-11	8.56e-11	9.68e-11	1.04e-10	1.07e-10	1.08e-10	1.08e-10	
1.1498e+10	0.00e+00	2.02e-13	5.07e-13	9.67e-13	1.66e-12	2.69e-12	4.24e-12	6.51e-12	9.84e-12	1.46e-11	2.13e-11	3.02e-11	4.19e-11	5.56e-11	7.02e-11	8.39e-11	9.49e-11	1.01e-10	1.05e-10	1.06e-10	1.06e-10	
1.3219e+10	0.00e+00	1.98e-13	4.97e-13	9.48e-13	1.63e-12	2.64e-12	4.15e-12	6.39e-12	9.65e-12	1.43e-11	2.09e-11	2.96e-11	4.10e-11	5.45e-11	6.88e-11	8.23e-11	9.30e-11	9.94e-11	1.03e-10	1.04e-10	1.04e-10	
1.5199e+10	0.00e+00	1.94e-13	4.87e-13	9.29e-13	1.59e-12	2.59e-12	4.07e-12	6.26e-12	9.46e-12	1.40e-11	2.05e-11	2.90e-11	4.02e-11	5.34e-11	6.75e-11	8.06e-11	9.12e-11	9.74e-11	1.01e-10	1.01e-10	1.02e-10	
1.7475e+10	0.00e+00	1.90e-13	4.78e-13	9.11e-13	1.56e-12	2.54e-12	3.99e-12	6.14e-12	9.27e-12	1.38e-11	2.01e-11	2.85e-11	3.94e-11	5.23e-11	6.61e-11	7.90e-11	8.93e-11	9.54e-11	9.84e-11	9.94e-11	9.97e-11	
2.0092e+10	0.00e+00	1.87e-13	4.68e-13	8.93e-13	1.53e-12	2.49e-12	3.91e-12	6.02e-12	9.09e-12	1.35e-11	1.97e-11	2.79e-11	3.86e-11	5.13e-11	6.48e-11	7.74e-11	8.75e-11	9.34e-11	9.63e-11	9.72e-11	9.76e-11	
2.3101e+10	0.00e+00	1.83e-13	4.59e-13	8.74e-13	1.50e-12	2.44e-12	3.83e-12	5.89e-12	8.90e-12	1.32e-11	1.93e-11	2.73e-11	3.78e-11	5.02e-11	6.34e-11	7.58e-11	8.56e-11	9.14e-11	9.43e-11	9.51e-11	9.55e-11	
2.6561e+10	0.00e+00	1.79e-13	4.49e-13	8.56e-13	1.47e-12	2.39e-12	3.75e-12	5.77e-12	8.72e-12	1.29e-11	1.89e-11	2.67e-11	3.71e-11	4.92e-11	6.21e-11	7.42e-11	8.38e-11	8.95e-11	9.22e-11	9.31e-11	9.34e-11	
3.0539e+10	0.00e+00	1.75e-13	4.40e-13	8.39e-13	1.44e-12	2.34e-12	3.68e-12	5.65e-12	8.54e-12	1.27e-11	1.85e-11	2.62e-11	3.63e-11	4.82e-11	6.08e-11	7.26e-11	8.20e-11	8.75e-11	9.02e-11	9.10e-11	9.13e-11	
3.5112e+10	0.00e+00	1.72e-13	4.31e-13	8.21e-13	1.41e-12	2.29e-12	3.60e-12	5.53e-12	8.36e-12	1.24e-11	1.81e-11	2.56e-11	3.55e-11	4.71e-11	5.95e-11	7.10e-11	8.02e-11	8.56e-11	8.82e-11	8.89e-11	8.93e-11	
4.0370e+10	0.00e+00	1.68e-13	4.21e-13	8.04e-13	1.38e-12	2.24e-12	3.52e-12	5.42e-12	8.18e-12	1.21e-11	1.77e-11	2.51e-11	3.48e-11	4.61e-11	5.82e-11	6.95e-11	7.85e-11	8.37e-11	8.62e-11	8.69e-11	8.72e-11	
4.6416e+10	0.00e+00	1.64e-13	4.12e-13	7.86e-13	1.35e-12	2.19e-12	3.45e-12	5.30e-12	8.00e-12	1.19e-11	1.73e-11	2.45e-11	3.40e-11	4.51e-11	5.69e-11	6.80e-11	7.67e-11	8.18e-11	8.42e-11	8.49e-11	8.52e-11	
5.3367e+10	0.00e+00	1.61e-13	4.03e-13	7.69e-13	1.32e-12	2.14e-12	3.37e-12	5.18e-12	7.83e-12	1.16e-11	1.69e-11	2.40e-11	3.33e-11	4.41e-11	5.57e-11	6.64e-11	7.49e-11	7.99e-11	8.23e-11	8.29e-11	8.32e-11	
6.1359e+10	0.00e+00	1.57e-13	3.94e-13	7.52e-13	1.29e-12	2.10e-12	3.30e-12	5.07e-12	7.66e-12	1.14e-11	1.66e-11	2.35e-11	3.25e-11	4.31e-11	5.44e-11	6.49e-11	7.32e-11	7.80e-11	8.03e-11	8.09e-11	8.11e-11	
7.0548e+10	0.00e+00	1.54e-13	3.86e-13	7.35e-13	1.26e-12	2.05e-12	3.22e-12	4.95e-12	7.48e-12	1.11e-11	1.62e-11	2.29e-11	3.18e-11	4.22e-11	5.32e-11	6.34e-11	7.15e-11	7.61e-11	7.84e-11	7.90e-11	7.92e-11	
8.1113e+10	0.00e+00	1.50e-13	3.77e-13	7.18e-13	1.23e-12	2.00e-12	3.15e-12	4.84e-12	7.31e-12	1.09e-11	1.58e-11	2.24e-11	3.10e-11	4.12e-11	5.19e-11	6.19e-11	6.98e-11	7.43e-11	7.64e-11	7.70e-11	7.72e-11	
9.3260e+10	0.00e+00	1.47e-13	3.68e-13	7.02e-13	1.20e-12	1.96e-12	3.08e-12	4.73e-12	7.14e-12	1.06e-11	1.54e-11	2.19e-11	3.03e-11	4.02e-11	5.07e-11	6.04e-11	6.81e-11	7.25e-11	7.45e-11	7.51e-11	7.53e-11	
1.0723e+11	0.00e+00	1.43e-13	3.60e-13	6.85e-13	1.18e-12	1.91e-12	3.00e-12	4.62e-12	6.98e-12	1.04e-11	1.51e-11	2.14e-11	2.96e-11	3.93e-11	4.95e-11	5.90e-11	6.64e-11	7.06e-11	7.27e-11	7.32e-11	7.34e-11	
1.2328e+11	0.00e+00	1.40e-13	3.51e-13	6.69e-13	1.15e-12	1.86e-12	2.93e-12	4.51e-12	6.81e-12	1.01e-11	1.47e-11	2.09e-11	2.89e-11	3.83e-11	4.83e-11	5.75e-11	6.47e-11	6.88e-11	7.08e-11	7.13e-11	7.15e-11	
1.4175e+11	0.00e+00	1.37e-13	3.43e-13	6.53e-13	1.12e-12	1.82e-12	2.86e-12	4.40e-12	6.65e-12	9.86e-12	1.44e-11	2.04e-11	2.82e-11	3.74e-11	4.71e-11	5.61e-11	6.31e-11	6.71e-11	6.89e-11	6.94e-11	6.96e-11	
1.6298e+11	0.00e+00	1.33e-13	3.34e-13	6.37e-13	1.09e-12	1.77e-12	2.79e-12	4.29e-12	6.48e-12	9.62e-12	1.40e-11	1.98e-11	2.75e-11	3.64e-11	4.59e-11	5.46e-11	6.15e-11	6.53e-11	6.71e-11	6.75e-11	6.77e-11	
1.8738e+11	0.00e+00	1.30e-13	3.26e-13	6.21e-13	1.07e-12	1.73e-12	2.72e-12	4.18e-12	6.32e-12	9.38e-12	1.37e-11	1.93e-11	2.68e-11	3.55e-11	4.47e-11	5.32e-11	5.98e-11	6.36e-11	6.52e-11	6.57e-11	6.58e-11	
2.1544e+11	0.00e+00	1.27e-13	3.18e-13	6.05e-13	1.04e-12	1.69e-12	2.65e-12	4.08e-12	6.16e-12	9.14e-12	1.33e-11	1.89e-11	2.61e-11	3.46e-11	4.35e-11	5.18e-11	5.82e-11	6.18e-11	6.34e-11	6.38e-11	6.40e-11	
2.4771e+11	0.00e+00	1.23e-13	3.09e-13	5.90e-13	1.01e-12	1.64e-12	2.58e-12	3.97e-12	6.00e-12	8.90e-12	1.30e-11	1.84e-11	2.54e-11	3.37e-11	4.24e-11	5.04e-11	5.66e-11	6.01e-11	6.16e-11	6.20e-11	6.22e-11	
2.8480e+11	0.00e+00	1.20e-13	3.01e-13	5.74e-13	9.85e-13	1.60e-12	2.52e-12	3.87e-12	5.84e-12	8.67e-12	1.26e-11	1.79e-11	2.47e-11	3.28e-11	4.12e-11	4.90e-11	5.50e-11	5.84e-11	5.99e-11	6.02e-11	6.04e-11	
3.2745e+11	0.00e+00	1.17e-13	2.93e-13	5.59e-13	9.58e-13	1.56e-12	2.45e-12	3.76e-12	5.68e-12	8.43e-12	1.23e-11	1.74e-11	2.41e-11	3.19e-11	4.01e-11	4.76e-11	5.35e-11	5.67e-11	5.81e-11	5.84e-11	5.86e-11	
3.7649e+11	0.00e+00	1.14e-13	2.85e-13	5.44e-13	9.32e-13	1.51e-12	2.38e-12	3.66e-12	5.53e-12	8.20e-12	1.19e-11	1.69e-11	2.34e-11	3.10e-11	3.90e-11	4.62e-11	5.19e-11	5.50e-11	5.63e-11	5.66e-11	5.67e-11	
4.3288e+11	0.00e+00	1.10e-13	2.77e-13	5.29e-13	9.06e-13	1.47e-12	2.32e-12	3.56e-12	5.38e-12	7.97e-12	1.16e-11	1.64e-11	2.27e-11	3.01e-11	3.78e-11	4.49e-11	5.04e-11	5.33e-11	5.46e-11	5.49e-11	5.50e-11	
4.9770e+11	0.00e+00	1.07e-13	2.69e-13	5.14e-13	8.81e-13	1.43e-12	2.25e-12	3.46e-12	5.22e-12	7.75e-12	1.13e-11	1.60e-11	2.21e-11	2.92e-11	3.67e-11	4.36e-11	4.88e-11	5.16e-11	5.29e-11	5.32e-11	5.33e-11	
5.7224e+11	0.00e+00	1.04e-13	2.62e-13	4.99e-13	8.55e-13	1.39e-12	2.19e-12	3.36e-12	5.07e-12	7.52e-12	1.09e-11	1.55e-11	2.14e-11	2.83e-11	3.56e-11	4.22e-11	4.73e-11	5.00e-11	5.11e-11	5.14e-11	5.15e-11	
6.5793e+11	0.00e+00	1.01e-13	2.54e-13	4.84e-13	8.30e-13	1.35e-12	2.12e-12	3.26e-12	4.92e-12	7.30e-12	1.06e-11	1.50e-11	2.08e-11	2.75e-11	3.45e-11	4.09e-11	4.58e-11	4.84e-11	4.95e-11	4.97e-11	4.98e-11	
7.5646e+11	0.00e+00	9.81e-14	2.46e-13	4.69e-13	8.05e-13	1.31e-12	2.06e-12	3.16e-12	4.77e-12	7.08e-12	1.03e-11	1.46e-11	2.01e-11	2.66e-11	3.34e-11	3.96e-11	4.43e-11	4.68e-11	4.78e-11	4.80e-11	4.81e-11	
8.6975e+11	0.00e+00	9.51e-14	2.39e-13	4.55e-13	7.80e-13	1.27e-12	1.99e-12	3.06e-12	4.62e-12	6.86e-12	9.97e-12	1.41e-11	1.95e-11	2.58e-11	3.23e-11	3.83e-11	4.27e-11	4.52e-11	4.62e-11	4.63e-11	4.65e-11	
1.0000e+12	0.00e+00	9.21e-14	2.31e-13	4.41e-13	7.56e-13	1.23e-12	1.93e-12	2.97e-12	4.48e-12	6.64e-12	9.65e-12	1.37e-11	1.89e-11	2.49e-11	3.13e-11	3.70e-11	4.13e-11	4.36e-11	4.45e-11	4.47e-11	4.47e-11	
1.1498e+12	0.00e+00	8.91e-14	2.24e-13	4.26e-13	7.31e-13	1.19e-12	1.87e-12	2.87e-12	4.33e-12	6.42e-12	9.34e-12	1.32e-11	1.83e-11	2.41e-11	3.02e-11	3.57e-11	3.99e-11	4.20e-11	4.29e-11	4.31e-11	4.31e-11	
1.3219e+12	0.00e+00	8.62e-14	2.16e-13	4.12e-13	7.07e-13	1.15e-12	1.81e-12	2.77e-12	4.19e-12	6.21e-12	9.02e-12	1.28e-11	1.76e-11	2.33e-11	2.92e-11	3.45e-11	3.85e-11	4.05e-11	4.13e-11	4.15e-11	4.15e-11	
1.5199e+12	0.00e+00	8.33e-14	2.09e-13	3.98e-13	6.83e-13	1.11e-12	1.74e-12	2.68e-12	4.05e-12	6.00e-12	8.72e-12	1.23e-11	1.70e-11	2.25e-11	2.81e-11	3.32e-11	3.70e-11	3.90e-11	3.97e-11	3.98e-11	3.99e-11	
1.7475e+12	0.00e+00	8.04e-14	2.02e-13	3.84e-13	6.59e-13	1.07e-12	1.68e-12	2.59e-12	3.90e-12	5.79e-12	8.41e-12	1.19e-11	1.64e-11	2.17e-11	2.71e-11	3.20e-11	3.56e-11	3.74e-11	3.82e-11	3.82e-11	3.83e-11	
2.0092e+12	0.00e+00	7.75e-14	1.94e-13	3.71e-13	6.36e-13	1.03e-12	1.62e-12	2.49e-12	3.76e-12	5.58e-12	8.11e-12	1.15e-11	1.58e-11	2.08e-11	2.61e-11	3.07e-11	3.42e-11	3.59e-11	3.66e-11	3.67e-11	3.68e-11	
2.3101e+12	0.00e+00	7.47e-14	1.87e-13	3.57e-13	6.12e-13	9.95e-13	1.56e-12	2.40e-12	3.63e-12	5.37e-12	7.80e-12	1.10e-11	1.52e-11	2.00e-11	2.50e-11	2.95e-11	3.28e-11	3.44e-11	3.51e-11	3.52e-11	3.52e-11	
2.6561e+12	0.00e+00	7.19e-14	1.80e-13	3.44e-13	5.89e-13	9.57e-13	1.50e-12	2.31e-12	3.49e-12	5.17e-12	7.51e-12	1.06e-11	1.46e-11	1.92e-11	2.40e-11	2.83e-11	3.15e-11	3.30e-11	3.36e-11	3.36e-11	3.37e-11	
3.0539e+12	0.00e+00	6.91e-14	1.73e-13	3.30e-13	5.67e-13	9.20e-13	1.45e-12	2.22e-12	3.35e-12	4.96e-12	7.21e-12	1.02e-11	1.40e-11	1.85e-11	2.31e-11	2.71e-11	3.00e-11	3.15e-11	3.21e-11	3.21e-11	3.22e-11	
3.5112e+12	0.00e+00	6.63e-14	1.66e-13	3.17e-13	5.44e-13	8.83e-13	1.39e-12	2.13e-12	3.20e-12	4.74e-12	6.89e-12	9.74e-12	1.34e-11	1.77e-11	2.21e-11	2.60e-11	2.87e-11	3.01e-11	3.06e-11	3.06e-11	3.37e-11	
4.0370e+12	0.00e+00	6.32e-14	1.59e-13	3.02e-13	5.19e-13	8.42e-13	1.32e-12	2.03e-12	3.07e-12	4.54e-12	6.60e-12	9.33e-12	1.29e-11	1.69e-11	2.11e-11	2.48e-11	2.74e-11	2.87e-11	2.92e-11	2.92e-11	3.20e-11	
4.6416e+12	0.00e+00	6.06e-14	1.52e-13	2.90e-13	4.97e-13	8.07e-13	1.27e-12	1.95e-12	2.94e-12	4.36e-12	6.34e-12	8.95e-12	1.23e-11	1.62e-11	2.02e-11	2.37e-11	2.61e-11	2.74e-11	2.78e-11	2.78e-11	2.78e-11	
5.3367e+12	0.00e+00	5.82e-14	1.46e-13	2.79e-13	4.78e-13	7.75e-13	1.22e-12	1.87e-12	2.82e-12	4.18e-12	6.06e-12	8.56e-12	1.18e-11	1.55e-11	1.93e-11	2.26e-11	2.49e-11	2.60e-11	2.64e-11	2.64e-11	2.65e-11	
6.1359e+12	0.00e+00	5.56e-14	1.40e-13	2.66e-13	4.56e-13	7.40e-13	1.16e-12	1.79e-12	2.69e-12	3.99e-12	5.79e-12	8.16e-12	1.12e-11	1.48e-11	1.83e-11	2.15e-11	2.36e-11	2.47e-11	2.50e-11	2.51e-11	2.51e-11	
7.0548e+12	0.00e+00	5.30e-14	1.33e-13	2.54e-13	4.35e-13	7.06e-13	1.11e-12	1.70e-12	2.57e-12	3.80e-12	5.51e-12	7.77e-12	1.07e-11	1.40e-11	1.74e-11	2.04e-11	2.24e-11	2.34e-11	2.37e-11	2.37e-11	2.37e-11	
8.1113e+12	0.00e+00	5.05e-14	1.27e-13	2.41e-13	4.14e-13	6.72e-13	1.06e-12	1.62e-12	2.44e-12	3.61e-12	5.24e-12	7.39e-12	1.02e-11	1.33e-11	1.65e-11	1.93e-11	2.12e-11	2.21e-11	2.23e-11	2.24e-11	2.24e-11	
9.3260e+12	0.00e+00	4.79e-14	1.20e-13	2.29e-13	3.93e-13	6.38e-13	1.00e-12	1.54e-12	2.32e-12	3.43e-12	4.97e-12	7.01e-12	9.64e-12	1.26e-11	1.57e-11	1.83e-11	2.00e-11	2.08e-11	2.11e-11	2.11e-11	2.11e-11	
1.0723e+13	0.00e+00	4.54e-14	1.14e-13	2.17e-13	3.72e-13	6.05e-13	9.50e-13	1.46e-12	2.20e-12	3.25e-12	4.71e-12	6.63e-12	9.12e-12	1.19e-11	1.48e-11	1.72e-11	1.88e-11	1.96e-11	1.98e-11	1.98e-11	1.98e-11	
1.2328e+13	0.00e+00	4.30e-14	1.08e-13	2.06e-13	3.52e-13	5.72e-13	8.99e-13	1.38e-12	2.08e-12	3.07e-12	4.45e-12	6.27e-12	8.61e-12	1.13e-11	1.39e-11	1.62e-11	1.77e-11	1.84e-11	1.86e-11	1.86e-11	1.86e-11	
1.4175e+13	0.00e+00	4.06e-14	1.02e-13	1.94e-13	3.33e-13	5.40e-13	8.48e-13	1.30e-12	1.96e-12	2.90e-12	4.20e-12	5.91e-12	8.11e-12	1.06e-11	1.31e-11	1.52e-11	1.66e-11	1.72e-11	1.74e-11	1.74e-11	1.74e-11	
1.6298e+13	0.00e+00	3.82e-14	9.59e-14	1.83e-13	3.13e-13	5.08e-13	7.99e-13	1.23e-12	1.85e-12	2.73e-12	3.95e-12	5.56e-12	7.62e-12	9.96e-12	1.23e-11	1.42e-11	1.55e-11	1.61e-11	1.62e-11	1.62e-11	1.62e-11	
1.8738e+13	0.00e+00	3.59e-14	9.01e-14	1.72e-13	2.94e-13	4.78e-13	7.50e-13	1.15e-12	1.73e-12	2.56e-12	3.71e-12	5.21e-12	7.15e-12	9.32e-12	1.15e-11	1.33e-11	1.44e-11	1.49e-11	1.51e-11	1.51e-11	1.51e-11	
2.1544e+13	0.00e+00	3.36e-14	8.44e-14	1.61e-13	2.76e-13	4.47e-13	7.03e-13	1.08e-12	1.62e-12	2.40e-12	3.47e-12	4.87e-12	6.68e-12	8.70e-12	1.07e-11	1.24e-11	1.34e-11	1.39e-11	1.40e-11	1.40e-11	1.40e-11	
2.4771e+13	0.00e+00	3.14e-14	7.88e-14	1.50e-13	2.57e-13	4.18e-13	6.56e-13	1.01e-12	1.52e-12	2.24e-12	3.24e-12	4.54e-12	6.22e-12	8.10e-12	9.95e-12	1.15e-11	1.24e-11	1.28e-11	1.29e-11	1.29e-11	1.29e-11	
2.8480e+13	0.00e+00	2.93e-14	7.34e-14	1.40e-13	2.40e-13	3.89e-13	6.11e-13	9.37e-13	1.41e-12	2.08e-12	3.01e-12	4.22e-12	5.78e-12	7.52e-12	9.22e-12	1.06e-11	1.15e-11	1.18e-11	1.19e-11	1.19e-11	1.19e-11	
3.2745e+13	0.00e+00	2.72e-14	6.81e-14	1.30e-13	2.22e-13	3.61e-13	5.67e-13	8.69e-13	1.31e-12	1.93e-12	2.79e-12	3.91e-12	5.35e-12	6.95e-12	8.51e-12	9.77e-12	1.05e-11	1.08e-11	1.09e-11	1.09e-11	1.09e-11	
3.7649e+13	0.00e+00	2.51e-14	6.30e-14	1.20e-13	2.06e-13	3.34e-13	5.24e-13	8.04e-13	1.21e-12	1.78e-12	2.58e-12	3.61e-12	4.93e-12	6.40e-12	7.82e-12	8.98e-12	9.65e-12	9.90e-12	9.96e-12	9.96e-12	9.95e-12	
4.3288e+13	0.00e+00	2.31e-14	5.80e-14	1.11e-13	1.89e-13	3.07e-13	4.83e-13	7.40e-13	1.11e-12	1.64e-12	2.37e-12	3.32e-12	4.53e-12	5.87e-12	7.16e-12	8.20e-12	8.79e-12	9.01e-12	9.06e-12	9.06e-12	9.06e-12	
4.9770e+13	0.00e+00	2.12e-14	5.32e-14	1.01e-13	1.74e-13	2.82e-13	4.43e-13	6.78e-13	1.02e-12	1.50e-12	2.17e-12	3.04e-12	4.14e-12	5.36e-12	6.52e-12	7.46e-12	7.97e-12	8.16e-12	8.20e-12	8.20e-12	8.20e-12	
5.7224e+13	0.00e+00	1.94e-14	4.86e-14	9.26e-14	1.59e-13	2.57e-13	4.04e-13	6.19e-13	9.31e-13	1.37e-12	1.98e-12	2.77e-12	3.77e-12	4.87e-12	5.92e-12	6.75e-12	7.20e-12	7.35e-12	7.38e-12	7.38e-12	7.40e-12	
6.5793e+13	0.00e+00	1.76e-14	4.42e-14	8.42e-14	1.44e-13	2.34e-13	3.67e-13	5.63e-13	8.45e-13	1.25e-12	1.79e-12	2.51e-12	3.41e-12	4.40e-12	5.34e-12	6.07e-12	6.46e-12	6.59e-12	6.61e-12	6.61e-12	6.64e-12	
7.5646e+13	0.00e+00	1.59e-14	3.99e-14	7.61e-14	1.30e-13	2.11e-13	3.32e-13	5.09e-13	7.64e-13	1.12e-12	1.62e-12	2.26e-12	3.07e-12	3.95e-12	4.79e-12	5.43e-12	5.76e-12	5.87e-12	5.89e-12	5.89e-12	5.89e-12	
8.6975e+13	0.00e+00	1.43e-14	3.59e-14	6.84e-14	1.17e-13	1.90e-13	2.98e-13	4.57e-13	6.86e-13	1.01e-12	1.45e-12	2.02e-12	2.75e-12	3.53e-12	4.27e-12	4.83e-12	5.11e-12	5.20e-12	5.21e-12	5.21e-12	5.21e-12	
1.0000e+14	0.00e+00	1.28e-14	3.21e-14	6.11e-14	1.05e-13	1.70e-13	2.66e-13	4.08e-13	6.12e-13	9.00e-13	1.29e-12	1.80e-12	2.45e-12	3.14e-12	3.78e-12	4.26e-12	4.50e-12	4.57e-12	4.58e-12	5.06e-12	4.58e-12	
1.1498e+14	0.00e+00	1.13e-14	2.85e-14	5.42e-14	9.29e-14	1.51e-13	2.36e-13	3.62e-13	5.43e-13	7.98e-13	1.15e-12	1.60e-12	2.16e-12	2.76e-12	3.32e-12	3.73e-12	3.93e-12	3.98e-12	3.99e-12	3.99e-12	3.99e-12	
1.3219e+14	0.00e+00	1.00e-14	2.51e-14	4.78e-14	8.18e-14	1.33e-13	2.08e-13	3.19e-13	4.78e-13	7.01e-13	1.01e-12	1.41e-12	1.89e-12	2.42e-12	2.89e-12	3.25e-12	3.41e-12	3.45e-12	3.46e-12	3.46e-12	3.46e-12	
1.5199e+14	0.00e+00	8.74e-15	2.19e-14	4.17e-14	7.15e-14	1.16e-13	1.82e-13	2.78e-13	4.17e-13	6.12e-13	8.78e-13	1.23e-12	1.65e-12	2.10e-12	2.50e-12	2.80e-12	2.93e-12	2.96e-12	2.97e-12	2.97e-12	2.96e-12	
1.7475e+14	0.00e+00	7.57e-15	1.90e-14	3.62e-14	6.20e-14	1.00e-13	1.57e-13	2.41e-13	3.61e-13	5.30e-13	7.59e-13	1.06e-12	1.42e-12	1.80e-12	2.14e-12	2.39e-12	2.49e-12	2.52e-12	2.52e-12	2.52e-12	2.52e-12	
2.0092e+14	0.00e+00	6.50e-15	1.63e-14	3.11e-14	5.32e-14	8.62e-14	1.35e-13	2.07e-13	3.10e-13	4.54e-13	6.50e-13	9.05e-13	1.21e-12	1.53e-12	1.82e-12	2.02e-12	2.10e-12	2.12e-12	2.12e-12	2.12e-12	2.12e-12	
2.3101e+14	0.00e+00	5.53e-15	1.39e-14	2.64e-14	4.52e-14	7.33e-14	1.15e-13	1.76e-13	2.63e-13	3.85e-13	5.51e-13	7.66e-13	1.02e-12	1.29e-12	1.53e-12	1.68e-12	1.75e-12	1.76e-12	1.77e-12	1.76e-12	1.76e-12	
2.6561e+14	0.00e+00	4.65e-15	1.17e-14	2.22e-14	3.80e-14	6.16e-14	9.64e-14	1.47e-13	2.21e-13	3.23e-13	4.61e-13	6.41e-13	8.54e-13	1.08e-12	1.27e-12	1.39e-12	1.44e-12	1.45e-12	1.45e-12	1.45e-12	1.45e-12	
3.0539e+14	0.00e+00	3.86e-15	9.68e-15	1.84e-14	3.16e-14	5.11e-14	8.01e-14	1.22e-13	1.83e-13	2.68e-13	3.82e-13	5.30e-13	7.04e-13	8.83e-13	1.04e-12	1.13e-12	1.17e-12	1.18e-12	1.18e-12	1.18e-12	1.18e-12	
3.5112e+14	0.00e+00	3.16e-15	7.94e-15	1.51e-14	2.59e-14	4.19e-14	6.56e-14	1.00e-13	1.50e-13	2.19e-13	3.12e-13	4.32e-13	5.71e-13	7.15e-13	8.35e-13	9.10e-13	9.38e-13	9.43e-13	9.43e-13	9.43e-13	9.43e-13	
4.0370e+14	0.00e+00	2.55e-15	6.39e-15	1.22e-14	2.08e-14	3.37e-14	5.28e-14	8.06e-14	1.20e-13	1.76e-13	2.50e-13	3.46e-13	4.58e-13	5.71e-13	6.64e-13	7.20e-13	7.40e-13	7.42e-13	7.43e-13	7.44e-13	7.43e-13	
4.6416e+14	0.00e+00	2.03e-15	5.08e-15	9.68e-15	1.66e-14	2.68e-14	4.20e-14	6.41e-14	9.58e-14	1.40e-13	1.99e-13	2.74e-13	3.61e-13	4.49e-13	5.19e-13	5.61e-13	5.75e-13	5.76e-13	5.77e-13	5.77e-13	5.77e-13	
5.3367e+14	0.00e+00	1.59e-15	3.99e-15	7.59e-15	1.30e-14	2.10e-14	3.29e-14	5.02e-14	7.48e-14	1.09e-13	1.55e-13	2.13e-13	2.80e-13	3.46e-13	3.99e-13	4.28e-13	4.38e-13	4.39e-13	4.84e-13	4.39e-13	4.39e-13	
6.1359e+14	0.00e+00	1.22e-15	3.06e-15	5.82e-15	9.96e-15	1.61e-14	2.52e-14	3.84e-14	5.73e-14	8.33e-14	1.18e-13	1.62e-13	2.13e-13	2.62e-13	3.01e-13	3.21e-13	3.27e-13	3.27e-13	3.28e-13	3.27e-13	3.28e-13	
7.0548e+14	0.00e+00	9.17e-16	2.30e-15	4.37e-15	7.48e-15	1.21e-14	1.89e-14	2.88e-14	4.29e-14	6.24e-14	8.83e-14	1.21e-13	1.58e-13	1.94e-13	2.21e-13	2.35e-13	2.39e-13	2.39e-13	2.39e-13	2.39e-13	2.39e-13	
8.1113e+14	0.00e+00	6.73e-16	1.69e-15	3.21e-15	5.49e-15	8.88e-15	1.39e-14	2.11e-14	3.15e-14	4.56e-14	6.44e-14	8.81e-14	1.15e-13	1.40e-13	1.59e-13	1.68e-13	1.70e-13	1.70e-13	1.70e-13	1.70e-13	1.70e-13	
9.3260e+14	0.00e+00	4.82e-16	1.21e-15	2.30e-15	3.93e-15	6.35e-15	9.93e-15	1.51e-14	2.25e-14	3.25e-14	4.59e-14	6.25e-14	8.10e-14	9.83e-14	1.11e-13	1.17e-13	1.18e-13	1.18e-13	1.18e-13	1.18e-13	1.18e-13	
1.0723e+15	0.00e+00	3.36e-16	8.41e-16	1.60e-15	2.74e-15	4.42e-15	6.91e-15	1.05e-14	1.56e-14	2.26e-14	3.18e-14	4.32e-14	5.57e-14	6.71e-14	7.54e-14	7.88e-14	7.96e-14	7.97e-14	7.97e-14	7.97e-14	7.97e-14	
1.2328e+15	0.00e+00	2.27e-16	5.68e-16	1.08e-15	1.85e-15	2.98e-15	4.66e-15	7.08e-15	1.05e-14	1.52e-14	2.13e-14	2.89e-14	3.70e-14	4.44e-14	4.96e-14	5.16e-14	5.20e-14	5.20e-14	5.20e-14	5.20e-14	5.20e-14	
1.4175e+15	0.00e+00	1.48e-16	3.71e-16	7.05e-16	1.21e-15	1.95e-15	3.04e-15	4.62e-15	6.84e-15	9.86e-15	1.38e-14	1.86e-14	2.38e-14	2.84e-14	3.15e-14	3.26e-14	3.28e-14	3.28e-14	3.28e-14	3.28e-14	3.28e-14	
1.6298e+15	0.00e+00	9.31e-17	2.33e-16	4.44e-16	7.58e-16	1.22e-15	1.91e-15	2.90e-15	4.29e-15	6.17e-15	8.63e-15	1.16e-14	1.47e-14	1.74e-14	1.91e-14	1.98e-14	1.99e-14	1.99e-14	1.99e-14	1.99e-14	1.99e-14	
1.8738e+15	0.00e+00	5.62e-17	1.41e-16	2.68e-16	4.57e-16	7.38e-16	1.15e-15	1.74e-15	2.58e-15	3.70e-15	5.17e-15	6.91e-15	8.73e-15	1.03e-14	1.12e-14	1.15e-14	1.16e-14	1.16e-14	1.16e-14	1.16e-14	1.16e-14	
2.1544e+15	0.00e+00	3.24e-17	8.12e-17	1.54e-16	2.64e-16	4.25e-16	6.62e-16	1.00e-15	1.48e-15	2.12e-15	2.95e-15	3.93e-15	4.93e-15	5.76e-15	6.23e-15	6.39e-15	6.41e-15	6.41e-15	6.41e-15	6.41e-15	6.41e-15	
2.4771e+15	0.00e+00	1.78e-17	4.45e-17	8.46e-17	1.44e-16	2.33e-16	3.63e-16	5.48e-16	8.08e-16	1.16e-15	1.60e-15	2.12e-15	2.65e-15	3.07e-15	3.30e-15	3.37e-15	3.37e-15	3.37e-15	3.38e-15	3.38e-15	3.38e-15	
2.8480e+15	0.00e+00	9.21e-18	2.31e-17	4.38e-17	7.48e-17	1.21e-16	1.87e-16	2.83e-16	4.17e-16	5.96e-16	8.21e-16	1.08e-15	1.34e-15	1.54e-15	1.64e-15	1.67e-15	1.68e-15	1.68e-15	1.68e-15	1.68e-15	1.68e-15	
3.2745e+15	0.00e+00	4.48e-18	1.12e-17	2.13e-17	3.64e-17	5.86e-17	9.11e-17	1.37e-16	2.02e-16	2.88e-16	3.95e-16	5.18e-16	6.37e-16	7.28e-16	7.70e-16	7.81e-16	7.82e-16	7.81e-16	7.82e-16	7.82e-16	7.82e-16	
3.7649e+15	0.00e+00	2.04e-18	5.10e-18	9.69e-18	1.65e-17	2.66e-17	4.13e-17	6.23e-17	9.12e-17	1.30e-16	1.77e-16	2.31e-16	2.82e-16	3.19e-16	3.35e-16	3.39e-16	3.40e-16	3.39e-16	3.40e-16	3.40e-16	3.40e-16	
4.3288e+15	0.00e+00	8.57e-19	2.14e-18	4.07e-18	6.94e-18	1.12e-17	1.73e-17	2.61e-17	3.81e-17	5.41e-17	7.36e-17	9.53e-17	1.15e-16	1.29e-16	1.35e-16	1.36e-16	1.50e-16	1.36e-16	1.36e-16	1.36e-16	1.36e-16	
4.9770e+15	0.00e+00	3.30e-19	8.26e-19	1.57e-18	2.67e-18	4.30e-18	6.66e-18	1.00e-17	1.46e-17	2.06e-17	2.80e-17	3.60e-17	4.31e-17	4.80e-17	4.97e-17	5.01e-17	5.01e-17	5.01e-17	5.01e-17	5.01e-17	5.00e-17	
5.7224e+15	0.00e+00	1.15e-19	2.89e-19	5.48e-19	9.33e-19	1.50e-18	2.32e-18	3.48e-18	5.07e-18	7.14e-18	9.62e-18	1.23e-17	1.46e-17	1.60e-17	1.66e-17	1.67e-17	1.67e-17	1.67e-17	1.67e-17	1.67e-17	1.66e-17	
6.5793e+15	0.00e+00	3.60e-20	9.00e-20	1.71e-19	2.91e-19	4.67e-19	7.21e-19	1.08e-18	1.57e-18	2.20e-18	2.95e-18	3.74e-18	4.40e-18	4.79e-18	4.92e-18	4.94e-18	4.94e-18	4.94e-18	4.94e-18	4.94e-18	4.94e-18	
7.5646e+15	0.00e+00	9.69e-21	2.42e-20	4.59e-20	7.81e-20	1.25e-19	1.94e-19	2.89e-19	4.19e-19	5.86e-19	7.80e-19	9.81e-19	1.15e-18	1.23e-18	1.26e-18	1.27e-18	1.27e-18	1.27e-18	1.27e-18	1.27e-18	1.27e-18	
8.6975e+15	0.00e+00	1.97e-21	4.93e-21	9.34e-21	1.59e-20	2.55e-20	3.93e-20	5.86e-20	8.46e-20	1.18e-19	1.56e-19	1.95e-19	2.25e-19	2.41e-19	2.46e-19	2.46e-19	2.46e-19	2.46e-19	2.46e-19	2.46e-19	2.46e-19	
1.0000e+16	0.00e+00	0.00e+00	0.00e+00	0.00e+00	0.00e+00	0.00e+00	0.00e+00	0.00e+00	0.00e+00	0.00e+00	0.00e+00	0.00e+00	0.00e+00	0.00e+00	0.00e+00	0.00e+00	0.00e+00	0.00e+00	0.00e+00	0.00e+00	0.00e+00	
