TypeData
Sigmap
R[kpc]  dR[kpc]   V[km/s_or_km^2/s^2]  dV[km/s_or_km^2/s^2]
0.0149493553511     0.0061495820948  5.1259929849      1.5786868702
0.0469569169363     0.0177590032891  4.4100991377      1.2031760783
