# #theta [deg]	Integrated intensity [# cm^{-2} s^{-1} sr^{-1}] (Gammas)	Integrated intensity [# cm^{-2} s^{-1} sr^{-1}] (Neutrinos)
  0.0000e+00   9.31e-05   2.50e-05
  1.8182e+00   6.42e-06   1.73e-06
  3.6364e+00   2.65e-06   7.11e-07
  5.4545e+00   1.46e-06   3.91e-07
  7.2727e+00   9.16e-07   2.46e-07
  9.0909e+00   6.26e-07   1.68e-07
  1.0909e+01   4.54e-07   1.22e-07
  1.2727e+01   3.39e-07   9.11e-08
  1.4545e+01   2.62e-07   7.05e-08
  1.6364e+01   2.08e-07   5.59e-08
  1.8182e+01   1.68e-07   4.53e-08
  2.0000e+01   1.39e-07   3.73e-08
  2.1818e+01   1.17e-07   3.15e-08
  2.3636e+01   9.80e-08   2.63e-08
  2.5455e+01   8.37e-08   2.25e-08
  2.7273e+01   7.23e-08   1.94e-08
  2.9091e+01   6.29e-08   1.69e-08
  3.0909e+01   5.52e-08   1.48e-08
  3.2727e+01   4.88e-08   1.31e-08
  3.4545e+01   4.34e-08   1.17e-08
  3.6364e+01   3.88e-08   1.04e-08
  3.8182e+01   3.49e-08   9.37e-09
  4.0000e+01   3.15e-08   8.47e-09
  4.1818e+01   2.86e-08   7.69e-09
  4.3636e+01   2.61e-08   7.02e-09
  4.5455e+01   2.39e-08   6.43e-09
  4.7273e+01   2.20e-08   5.91e-09
  4.9091e+01   2.03e-08   5.45e-09
  5.0909e+01   1.88e-08   5.04e-09
  5.2727e+01   1.74e-08   4.68e-09
  5.4545e+01   1.57e-08   4.22e-09
  5.6364e+01   1.52e-08   4.07e-09
  5.8182e+01   1.42e-08   3.82e-09
  6.0000e+01   1.33e-08   3.58e-09
  6.1818e+01   1.25e-08   3.37e-09
  6.3636e+01   1.18e-08   3.18e-09
  6.5455e+01   1.12e-08   3.01e-09
  6.7273e+01   1.06e-08   2.85e-09
  6.9091e+01   1.01e-08   2.70e-09
  7.0909e+01   9.56e-09   2.57e-09
  7.2727e+01   9.11e-09   2.45e-09
  7.4545e+01   8.70e-09   2.34e-09
  7.6364e+01   8.32e-09   2.24e-09
  7.8182e+01   7.97e-09   2.14e-09
  8.0000e+01   7.64e-09   2.05e-09
  8.1818e+01   7.34e-09   1.97e-09
  8.3636e+01   7.06e-09   1.90e-09
  8.5455e+01   6.80e-09   1.83e-09
  8.7273e+01   6.56e-09   1.76e-09
  8.9091e+01   6.33e-09   1.70e-09
  9.0909e+01   6.12e-09   1.65e-09
  9.2727e+01   5.93e-09   1.59e-09
  9.4545e+01   5.74e-09   1.54e-09
  9.6364e+01   5.57e-09   1.50e-09
  9.8182e+01   5.41e-09   1.45e-09
  1.0000e+02   5.26e-09   1.41e-09
  1.0182e+02   5.12e-09   1.38e-09
  1.0364e+02   4.99e-09   1.34e-09
  1.0545e+02   4.86e-09   1.31e-09
  1.0727e+02   4.75e-09   1.27e-09
  1.0909e+02   4.63e-09   1.25e-09
  1.1091e+02   4.53e-09   1.22e-09
  1.1273e+02   4.43e-09   1.19e-09
  1.1455e+02   4.34e-09   1.17e-09
  1.1636e+02   4.25e-09   1.14e-09
  1.1818e+02   4.17e-09   1.12e-09
  1.2000e+02   4.09e-09   1.10e-09
  1.2182e+02   4.02e-09   1.08e-09
  1.2364e+02   3.95e-09   1.06e-09
  1.2545e+02   3.89e-09   1.04e-09
  1.2727e+02   3.82e-09   1.03e-09
  1.2909e+02   3.77e-09   1.01e-09
  1.3091e+02   3.71e-09   9.97e-10
  1.3273e+02   3.66e-09   9.84e-10
  1.3455e+02   3.61e-09   9.71e-10
  1.3636e+02   3.57e-09   9.59e-10
  1.3818e+02   3.52e-09   9.47e-10
  1.4000e+02   3.48e-09   9.36e-10
  1.4182e+02   3.45e-09   9.26e-10
  1.4364e+02   3.41e-09   9.16e-10
  1.4545e+02   3.38e-09   9.07e-10
  1.4727e+02   3.34e-09   8.99e-10
  1.4909e+02   3.32e-09   8.91e-10
  1.5091e+02   3.29e-09   8.84e-10
  1.5273e+02   3.26e-09   8.77e-10
  1.5455e+02   3.24e-09   8.70e-10
  1.5636e+02   3.22e-09   8.65e-10
  1.5818e+02   3.20e-09   8.59e-10
  1.6000e+02   3.18e-09   8.55e-10
  1.6182e+02   3.16e-09   8.50e-10
  1.6364e+02   3.15e-09   8.46e-10
  1.6545e+02   3.14e-09   8.43e-10
  1.6727e+02   3.12e-09   8.40e-10
  1.6909e+02   3.12e-09   8.37e-10
  1.7091e+02   3.11e-09   8.34e-10
  1.7273e+02   3.10e-09   8.33e-10
  1.7455e+02   3.09e-09   8.31e-10
  1.7636e+02   3.09e-09   8.30e-10
  1.7818e+02   3.09e-09   8.30e-10
  1.8000e+02   3.09e-09   8.29e-10
