%!PS-Adobe-2.0
%%Title: /local/cc234/RECHERCHE/CLUMPS/CLUMPY_v2011.05/DocImages/r2rho2.ps: r2rho2
%%Creator: ROOT Version 5.23/04
%%CreationDate: Thu Jul 21 17:57:28 2011
%%Orientation: Landscape
%%EndComments
%%BeginProlog
/s {stroke} def /l {lineto} def /m {moveto} def /t {translate} def
/sw {stringwidth} def /r {rotate} def /rl {roll}  def /R {repeat} def
/d {rlineto} def /rm {rmoveto} def /gr {grestore} def /f {eofill} def
/c {setrgbcolor} def /black {0 setgray} def /sd {setdash} def
/cl {closepath} def /sf {scalefont setfont} def /lw {setlinewidth} def
/box {m dup 0 exch d exch 0 d 0 exch neg d cl} def
/NC{systemdict begin initclip end}def/C{NC box clip newpath}def
/bl {box s} def /bf {box f} def /Y { 0 exch d} def /X { 0 d} def 
/mp {newpath /y exch def /x exch def} def
/side {[w .77 mul w .23 mul] .385 w mul sd w 0 l currentpoint t -144 r} def
/mr {mp x y w2 0 360 arc} def /m24 {mr s} def /m20 {mr f} def
/mb {mp x y w2 add m w2 neg 0 d 0 w neg d w 0 d 0 w d cl} def
/mt {mp x y w2 add m w2 neg w neg d w 0 d cl} def
/m21 {mb f} def /m25 {mb s} def /m22 {mt f} def /m26{mt s} def
/m23 {mp x y w2 sub m w2 w d w neg 0 d cl f} def
/m27 {mp x y w2 add m w3 neg w2 neg d w3 w2 neg d w3 w2 d cl s} def
/m28 {mp x w2 sub y w2 sub w3 add m w3 0 d  0 w3 neg d w3 0 d 0 w3 d w3 0 d  0 w3 d w3 neg 0 d 0 w3 d w3 neg 0 d
 0 w3 neg d w3 neg 0 d cl s } def
/m29 {mp gsave x w2 sub y w2 add w3 sub m currentpoint t
 4 {side} repeat cl fill gr} def
/m30 {mp gsave x w2 sub y w2 add w3 sub m currentpoint t
 4 {side} repeat cl s gr} def
/m31 {mp x y w2 sub m 0 w d x w2 sub y m w 0 d x w2 sub y w2 add m w w neg d x w2 sub y w2
 sub m w w d s} def
/m2 {mp x y w2 sub m 0 w d x w2 sub y m w 0 d s} def
/m5 {mp x w2 sub y w2 sub m w w d x w2 sub y w2 add m w w neg d s} def
/reEncode {exch findfont dup length dict begin {1 index /FID eq  {pop pop} {def} ifelse } forall /Encoding exch def currentdict end dup /FontName get exch definefont pop } def [/Times-Bold /Times-Italic /Times-BoldItalic /Helvetica
 /Helvetica-Oblique /Helvetica-Bold /Helvetica-BoldOblique /Courier /Courier-Oblique /Courier-Bold /Courier-BoldOblique /Times-Roman /AvantGarde-Book /AvantGarde-BookOblique /AvantGarde-Demi /AvantGarde-DemiOblique /Bookman-Demi
 /Bookman-DemiItalic /Bookman-Light /Bookman-LightItalic /Helvetica-Narrow /Helvetica-Narrow-Bold /Helvetica-Narrow-BoldOblique /Helvetica-Narrow-Oblique /NewCenturySchlbk-Roman /NewCenturySchlbk-Bold
 /NewCenturySchlbk-BoldItalic /NewCenturySchlbk-Italic /Palatino-Bold /Palatino-BoldItalic /Palatino-Italic /Palatino-Roman ] {ISOLatin1Encoding reEncode } forall
/oshow {gsave [] 0 sd true charpath stroke gr} def
/stwn { /fs exch def /fn exch def /text exch def fn findfont fs sf
 text sw pop xs add /xs exch def} def
/stwb { /fs exch def /fn exch def /nbas exch def /textf exch deftextf length /tlen exch def nbas tlen gt {/nbas tlendef} iffn findfont fs sf textf dup length nbas sub nbas getinterval sw
pop neg xs add /xs exch def} def
/Zone {/iy exch def /ix exch def  ix 1 sub  3144 mul  1 iy sub  2224
 mul t} def
%%EndProlog
%%BeginSetup
%%EndSetup
newpath  gsave  90 r 0 -594 t  28 20 t .25 .25 scale  gsave 
%%Page: 1 1
 gsave  gsave 
 1 1 Zone
 gsave  0 0 t black[  ] 0 sd 3 lw 0.999 0.999 0.999 c 2948 2154 0 0 bf black 1 1 1 c 2506 1831 295 215 bf black 2506 1831 295 215 bl 1 1 1 c 2506 1831 295 215 bf black 2506 1831 295 215 bl 295 215 m 2506 X s
 gsave  2948 2154 0 0 C 2752 5 t 0 r /Times-Roman findfont 54.7622 sf 0 0 m (\2552) show NC gr 
 gsave  2948 2154 0 0 C 2670 32 t 0 r /Times-Roman findfont 82.1433 sf 0 0 m (r/r) show NC gr  334 243 m -28 Y s 377 243 m -28 Y s 408 243 m -28 Y s 431 243 m -28 Y s 451 243 m -28 Y s 467 243 m -28 Y s 481 243 m -28 Y s 493 243 m -28 Y s 504 270 m
 -55 Y s
 gsave  2948 2154 0 0 C 520 151 t 0 r /Times-Roman findfont 54.7622 sf 0 0 m (\2558) show NC gr 
 gsave  2948 2154 0 0 C 438 110 t 0 r /Times-Roman findfont 82.1433 sf 0 0 m (10) show NC gr  578 243 m -28 Y s 621 243 m -28 Y s 651 243 m -28 Y s 675 243 m -28 Y s 694 243 m -28 Y s 710 243 m -28 Y s 724 243 m -28 Y s 737 243 m -28 Y s 748 270 m
 -55 Y s
 gsave  2948 2154 0 0 C 762 151 t 0 r /Times-Roman findfont 54.7622 sf 0 0 m (\2557) show NC gr 
 gsave  2948 2154 0 0 C 680 110 t 0 r /Times-Roman findfont 82.1433 sf 0 0 m (10) show NC gr  821 243 m -28 Y s 864 243 m -28 Y s 894 243 m -28 Y s 918 243 m -28 Y s 937 243 m -28 Y s 953 243 m -28 Y s 967 243 m -28 Y s 980 243 m -28 Y s 991 270 m
 -55 Y s
 gsave  2948 2154 0 0 C 1009 151 t 0 r /Times-Roman findfont 54.7622 sf 0 0 m (\2556) show NC gr 
 gsave  2948 2154 0 0 C 926 110 t 0 r /Times-Roman findfont 82.1433 sf 0 0 m (10) show NC gr  1064 243 m -28 Y s 1107 243 m -28 Y s 1137 243 m -28 Y s 1161 243 m -28 Y s 1180 243 m -28 Y s 1197 243 m -28 Y s 1211 243 m -28 Y s 1223 243 m -28 Y s
 1234 270 m -55 Y s
 gsave  2948 2154 0 0 C 1250 151 t 0 r /Times-Roman findfont 54.7622 sf 0 0 m (\2555) show NC gr 
 gsave  2948 2154 0 0 C 1168 110 t 0 r /Times-Roman findfont 82.1433 sf 0 0 m (10) show NC gr  1307 243 m -28 Y s 1350 243 m -28 Y s 1381 243 m -28 Y s 1404 243 m -28 Y s 1423 243 m -28 Y s 1440 243 m -28 Y s 1454 243 m -28 Y s 1466 243 m -28 Y s
 1477 270 m -55 Y s
 gsave  2948 2154 0 0 C 1492 146 t 0 r /Times-Roman findfont 54.7622 sf 0 0 m (\2554) show NC gr 
 gsave  2948 2154 0 0 C 1410 110 t 0 r /Times-Roman findfont 82.1433 sf 0 0 m (10) show NC gr  1551 243 m -28 Y s 1594 243 m -28 Y s 1624 243 m -28 Y s 1647 243 m -28 Y s 1667 243 m -28 Y s 1683 243 m -28 Y s 1697 243 m -28 Y s 1710 243 m -28 Y s
 1721 270 m -55 Y s
 gsave  2948 2154 0 0 C 1739 151 t 0 r /Times-Roman findfont 54.7622 sf 0 0 m (\2553) show NC gr 
 gsave  2948 2154 0 0 C 1657 110 t 0 r /Times-Roman findfont 82.1433 sf 0 0 m (10) show NC gr  1794 243 m -28 Y s 1837 243 m -28 Y s 1867 243 m -28 Y s 1891 243 m -28 Y s 1910 243 m -28 Y s 1926 243 m -28 Y s 1940 243 m -28 Y s 1953 243 m -28 Y s
 1964 270 m -55 Y s
 gsave  2948 2154 0 0 C 1981 146 t 0 r /Times-Roman findfont 54.7622 sf 0 0 m (\2552) show NC gr 
 gsave  2948 2154 0 0 C 1898 110 t 0 r /Times-Roman findfont 82.1433 sf 0 0 m (10) show NC gr  2037 243 m -28 Y s 2080 243 m -28 Y s 2110 243 m -28 Y s 2134 243 m -28 Y s 2153 243 m -28 Y s 2169 243 m -28 Y s 2184 243 m -28 Y s 2196 243 m -28 Y s
 2207 270 m -55 Y s
 gsave  2948 2154 0 0 C 2222 146 t 0 r /Times-Roman findfont 54.7622 sf 0 0 m (\2551) show NC gr 
 gsave  2948 2154 0 0 C 2140 110 t 0 r /Times-Roman findfont 82.1433 sf 0 0 m (10) show NC gr  2280 243 m -28 Y s 2323 243 m -28 Y s 2354 243 m -28 Y s 2377 243 m -28 Y s 2396 243 m -28 Y s 2413 243 m -28 Y s 2427 243 m -28 Y s 2439 243 m -28 Y s
 2450 270 m -55 Y s
 gsave  2948 2154 0 0 C 2450 106 t 0 r  -16 0 t /Times-Roman findfont 82.1433 sf 0 0 m (1) show NC gr  2524 243 m -28 Y s 2566 243 m -28 Y s 2597 243 m -28 Y s 2620 243 m -28 Y s 2640 243 m -28 Y s 2656 243 m -28 Y s 2670 243 m -28 Y s 2683 243 m
 -28 Y s 2694 270 m -55 Y s
 gsave  2948 2154 0 0 C 2694 106 t 0 r  -41 0 t /Times-Roman findfont 82.1433 sf 0 0 m (10) show NC gr  2767 243 m -28 Y s 295 2046 m 2506 X s 334 2019 m 27 Y s 377 2019 m 27 Y s 408 2019 m 27 Y s 431 2019 m 27 Y s 451 2019 m 27 Y s 467 2019 m 27 Y
 s 481 2019 m 27 Y s 493 2019 m 27 Y s 504 1991 m 55 Y s 578 2019 m 27 Y s 621 2019 m 27 Y s 651 2019 m 27 Y s 675 2019 m 27 Y s 694 2019 m 27 Y s 710 2019 m 27 Y s 724 2019 m 27 Y s 737 2019 m 27 Y s 748 1991 m 55 Y s 821 2019 m 27 Y s 864 2019 m
 27 Y s 894 2019 m 27 Y s 918 2019 m 27 Y s 937 2019 m 27 Y s 953 2019 m 27 Y s 967 2019 m 27 Y s 980 2019 m 27 Y s 991 1991 m 55 Y s 1064 2019 m 27 Y s 1107 2019 m 27 Y s 1137 2019 m 27 Y s 1161 2019 m 27 Y s 1180 2019 m 27 Y s 1197 2019 m 27 Y s
 1211 2019 m 27 Y s 1223 2019 m 27 Y s 1234 1991 m 55 Y s 1307 2019 m 27 Y s 1350 2019 m 27 Y s 1381 2019 m 27 Y s 1404 2019 m 27 Y s 1423 2019 m 27 Y s 1440 2019 m 27 Y s 1454 2019 m 27 Y s 1466 2019 m 27 Y s 1477 1991 m 55 Y s 1551 2019 m 27 Y s
 1594 2019 m 27 Y s 1624 2019 m 27 Y s 1647 2019 m 27 Y s 1667 2019 m 27 Y s 1683 2019 m 27 Y s 1697 2019 m 27 Y s 1710 2019 m 27 Y s 1721 1991 m 55 Y s 1794 2019 m 27 Y s 1837 2019 m 27 Y s 1867 2019 m 27 Y s 1891 2019 m 27 Y s 1910 2019 m 27 Y s
 1926 2019 m 27 Y s 1940 2019 m 27 Y s 1953 2019 m 27 Y s 1964 1991 m 55 Y s 2037 2019 m 27 Y s 2080 2019 m 27 Y s 2110 2019 m 27 Y s 2134 2019 m 27 Y s 2153 2019 m 27 Y s 2169 2019 m 27 Y s 2184 2019 m 27 Y s 2196 2019 m 27 Y s 2207 1991 m 55 Y s
 2280 2019 m 27 Y s 2323 2019 m 27 Y s 2354 2019 m 27 Y s 2377 2019 m 27 Y s 2396 2019 m 27 Y s 2413 2019 m 27 Y s 2427 2019 m 27 Y s 2439 2019 m 27 Y s 2450 1991 m 55 Y s 2524 2019 m 27 Y s 2566 2019 m 27 Y s 2597 2019 m 27 Y s 2620 2019 m 27 Y s
 2640 2019 m 27 Y s 2656 2019 m 27 Y s 2670 2019 m 27 Y s 2683 2019 m 27 Y s 2694 1991 m 55 Y s 2767 2019 m 27 Y s 295 215 m 1831 Y s
 gsave  2948 2154 0 0 C 87 2022 t 90 r /Times-Roman findfont 91.2703 sf 0 0 m (]) show NC gr 
 gsave  2948 2154 0 0 C 46 1990 t 90 r /Times-Roman findfont 59.3257 sf 0 0 m (4) show NC gr 
 gsave  2948 2154 0 0 C 87 1835 t 90 r /Times-Roman findfont 91.2703 sf 0 0 m (/kpc) show NC gr 
 gsave  2948 2154 0 0 C 46 1803 t 90 r /Times-Roman findfont 59.3257 sf 0 0 m (2) show NC gr  6 lw 114 1844 m 9 X 5 -5 d 4 -4 d -23 Y -4 X -5 Y -5 X -4 -4 d -9 X -5 4 d -5 X 5 Y -4 X 23 Y 4 4 d 5 5 d 9 X cl s 114 1830 m 5 -5 d -4 Y -9 X 4 Y 4 5 d cl
 s
 gsave  2948 2154 0 0 C 87 1556 t 90 r /Times-Roman findfont 91.2703 sf 0 0 m (\(r\)  [M) show NC gr 
 gsave  2948 2154 0 0 C 55 1529 t 90 r /Times-Roman findfont 59.3257 sf 0 0 m (2) show NC gr 
 gsave  2948 2154 0 0 C 87 1483 t 90 r /Symbol findfont 91.2703 sf 0 0 m (r) show NC gr 
 gsave  2948 2154 0 0 C 87 1460 t 90 r /Times-Roman findfont 91.2703 sf 0 0 m ( ) show NC gr 
 gsave  2948 2154 0 0 C 59 1433 t 90 r /Times-Roman findfont 59.3257 sf 0 0 m (2) show NC gr 
 gsave  2948 2154 0 0 C 87 1401 t 90 r /Times-Roman findfont 91.2703 sf 0 0 m (r) show NC gr  3 lw 332 222 m -37 X s 332 228 m -37 X s 332 233 m -37 X s 370 238 m -75 X s 332 270 m -37 X s 332 289 m -37 X s 332 302 m -37 X s 332 312 m -37 X s 332
 321 m -37 X s 332 328 m -37 X s 332 334 m -37 X s 332 339 m -37 X s 370 344 m -75 X s
 gsave  2948 2154 0 0 C 242 351 t 0 r /Times-Roman findfont 54.7622 sf 0 0 m (5) show NC gr 
 gsave  2948 2154 0 0 C 160 310 t 0 r /Times-Roman findfont 82.1433 sf 0 0 m (10) show NC gr  332 376 m -37 X s 332 395 m -37 X s 332 408 m -37 X s 332 418 m -37 X s 332 427 m -37 X s 332 434 m -37 X s 332 440 m -37 X s 332 446 m -37 X s 370 450 m
 -75 X s 332 482 m -37 X s 332 501 m -37 X s 332 514 m -37 X s 332 525 m -37 X s 332 533 m -37 X s 332 540 m -37 X s 332 546 m -37 X s 332 552 m -37 X s 370 557 m -75 X s
 gsave  2948 2154 0 0 C 242 561 t 0 r /Times-Roman findfont 54.7622 sf 0 0 m (7) show NC gr 
 gsave  2948 2154 0 0 C 160 520 t 0 r /Times-Roman findfont 82.1433 sf 0 0 m (10) show NC gr  332 589 m -37 X s 332 607 m -37 X s 332 621 m -37 X s 332 631 m -37 X s 332 639 m -37 X s 332 646 m -37 X s 332 653 m -37 X s 332 658 m -37 X s 370 663 m
 -75 X s 332 695 m -37 X s 332 714 m -37 X s 332 727 m -37 X s 332 737 m -37 X s 332 746 m -37 X s 332 753 m -37 X s 332 759 m -37 X s 332 764 m -37 X s 370 769 m -75 X s
 gsave  2948 2154 0 0 C 242 771 t 0 r /Times-Roman findfont 54.7622 sf 0 0 m (9) show NC gr 
 gsave  2948 2154 0 0 C 160 735 t 0 r /Times-Roman findfont 82.1433 sf 0 0 m (10) show NC gr  332 801 m -37 X s 332 820 m -37 X s 332 833 m -37 X s 332 843 m -37 X s 332 852 m -37 X s 332 859 m -37 X s 332 865 m -37 X s 332 870 m -37 X s 370 875 m
 -75 X s 332 907 m -37 X s 332 926 m -37 X s 332 939 m -37 X s 332 950 m -37 X s 332 958 m -37 X s 332 965 m -37 X s 332 971 m -37 X s 332 977 m -37 X s 370 982 m -75 X s
 gsave  2948 2154 0 0 C 219 981 t 0 r /Times-Roman findfont 54.7622 sf 0 0 m (11) show NC gr 
 gsave  2948 2154 0 0 C 137 949 t 0 r /Times-Roman findfont 82.1433 sf 0 0 m (10) show NC gr  332 1013 m -37 X s 332 1032 m -37 X s 332 1045 m -37 X s 332 1056 m -37 X s 332 1064 m -37 X s 332 1071 m -37 X s 332 1077 m -37 X s 332 1083 m -37 X s 370
 1088 m -75 X s 332 1120 m -37 X s 332 1138 m -37 X s 332 1152 m -37 X s 332 1162 m -37 X s 332 1170 m -37 X s 332 1177 m -37 X s 332 1184 m -37 X s 332 1189 m -37 X s 370 1194 m -75 X s
 gsave  2948 2154 0 0 C 219 1196 t 0 r /Times-Roman findfont 54.7622 sf 0 0 m (13) show NC gr 
 gsave  2948 2154 0 0 C 137 1159 t 0 r /Times-Roman findfont 82.1433 sf 0 0 m (10) show NC gr  332 1226 m -37 X s 332 1245 m -37 X s 332 1258 m -37 X s 332 1268 m -37 X s 332 1277 m -37 X s 332 1284 m -37 X s 332 1290 m -37 X s 332 1295 m -37 X s
 370 1300 m -75 X s 332 1332 m -37 X s 332 1351 m -37 X s 332 1364 m -37 X s 332 1374 m -37 X s 332 1383 m -37 X s 332 1390 m -37 X s 332 1396 m -37 X s 332 1402 m -37 X s 370 1406 m -75 X s
 gsave  2948 2154 0 0 C 214 1410 t 0 r /Times-Roman findfont 54.7622 sf 0 0 m (15) show NC gr 
 gsave  2948 2154 0 0 C 132 1374 t 0 r /Times-Roman findfont 82.1433 sf 0 0 m (10) show NC gr  332 1438 m -37 X s 332 1457 m -37 X s 332 1470 m -37 X s 332 1481 m -37 X s 332 1489 m -37 X s 332 1496 m -37 X s 332 1502 m -37 X s 332 1508 m -37 X s
 370 1513 m -75 X s 332 1545 m -37 X s 332 1563 m -37 X s 332 1577 m -37 X s 332 1587 m -37 X s 332 1595 m -37 X s 332 1602 m -37 X s 332 1609 m -37 X s 332 1614 m -37 X s 370 1619 m -75 X s
 gsave  2948 2154 0 0 C 214 1620 t 0 r /Times-Roman findfont 54.7622 sf 0 0 m (17) show NC gr 
 gsave  2948 2154 0 0 C 132 1584 t 0 r /Times-Roman findfont 82.1433 sf 0 0 m (10) show NC gr  332 1651 m -37 X s 332 1669 m -37 X s 332 1683 m -37 X s 332 1693 m -37 X s 332 1701 m -37 X s 332 1709 m -37 X s 332 1715 m -37 X s 332 1720 m -37 X s
 370 1725 m -75 X s 332 1757 m -37 X s 332 1776 m -37 X s 332 1789 m -37 X s 332 1799 m -37 X s 332 1808 m -37 X s 332 1815 m -37 X s 332 1821 m -37 X s 332 1826 m -37 X s 370 1831 m -75 X s
 gsave  2948 2154 0 0 C 214 1835 t 0 r /Times-Roman findfont 54.7622 sf 0 0 m (19) show NC gr 
 gsave  2948 2154 0 0 C 132 1798 t 0 r /Times-Roman findfont 82.1433 sf 0 0 m (10) show NC gr  332 1863 m -37 X s 332 1882 m -37 X s 332 1895 m -37 X s 332 1905 m -37 X s 332 1914 m -37 X s 332 1921 m -37 X s 332 1927 m -37 X s 332 1933 m -37 X s
 370 1937 m -75 X s 332 1969 m -37 X s 332 1988 m -37 X s 332 2001 m -37 X s 332 2012 m -37 X s 332 2020 m -37 X s 332 2027 m -37 X s 332 2033 m -37 X s 332 2039 m -37 X s 370 2044 m -75 X s
 gsave  2948 2154 0 0 C 219 2040 t 0 r /Times-Roman findfont 54.7622 sf 0 0 m (21) show NC gr 
 gsave  2948 2154 0 0 C 137 2008 t 0 r /Times-Roman findfont 82.1433 sf 0 0 m (10) show NC gr  2801 215 m 1831 Y s 2763 222 m 38 X s 2763 228 m 38 X s 2763 233 m 38 X s 2725 238 m 76 X s 2763 270 m 38 X s 2763 289 m 38 X s 2763 302 m 38 X s 2763 312
 m 38 X s 2763 321 m 38 X s 2763 328 m 38 X s 2763 334 m 38 X s 2763 339 m 38 X s 2725 344 m 76 X s 2763 376 m 38 X s 2763 395 m 38 X s 2763 408 m 38 X s 2763 418 m 38 X s 2763 427 m 38 X s 2763 434 m 38 X s 2763 440 m 38 X s 2763 446 m 38 X s 2725
 450 m 76 X s 2763 482 m 38 X s 2763 501 m 38 X s 2763 514 m 38 X s 2763 525 m 38 X s 2763 533 m 38 X s 2763 540 m 38 X s 2763 546 m 38 X s 2763 552 m 38 X s 2725 557 m 76 X s 2763 589 m 38 X s 2763 607 m 38 X s 2763 621 m 38 X s 2763 631 m 38 X s
 2763 639 m 38 X s 2763 646 m 38 X s 2763 653 m 38 X s 2763 658 m 38 X s 2725 663 m 76 X s 2763 695 m 38 X s 2763 714 m 38 X s 2763 727 m 38 X s 2763 737 m 38 X s 2763 746 m 38 X s 2763 753 m 38 X s 2763 759 m 38 X s 2763 764 m 38 X s 2725 769 m 76
 X s 2763 801 m 38 X s 2763 820 m 38 X s 2763 833 m 38 X s 2763 843 m 38 X s 2763 852 m 38 X s 2763 859 m 38 X s 2763 865 m 38 X s 2763 870 m 38 X s 2725 875 m 76 X s 2763 907 m 38 X s 2763 926 m 38 X s 2763 939 m 38 X s 2763 950 m 38 X s 2763 958 m
 38 X s 2763 965 m 38 X s 2763 971 m 38 X s 2763 977 m 38 X s 2725 982 m 76 X s 2763 1013 m 38 X s 2763 1032 m 38 X s 2763 1045 m 38 X s 2763 1056 m 38 X s 2763 1064 m 38 X s 2763 1071 m 38 X s 2763 1077 m 38 X s 2763 1083 m 38 X s 2725 1088 m 76 X
 s 2763 1120 m 38 X s 2763 1138 m 38 X s 2763 1152 m 38 X s 2763 1162 m 38 X s 2763 1170 m 38 X s 2763 1177 m 38 X s 2763 1184 m 38 X s 2763 1189 m 38 X s 2725 1194 m 76 X s 2763 1226 m 38 X s 2763 1245 m 38 X s 2763 1258 m 38 X s 2763 1268 m 38 X s
 2763 1277 m 38 X s 2763 1284 m 38 X s 2763 1290 m 38 X s 2763 1295 m 38 X s 2725 1300 m 76 X s 2763 1332 m 38 X s 2763 1351 m 38 X s 2763 1364 m 38 X s 2763 1374 m 38 X s 2763 1383 m 38 X s 2763 1390 m 38 X s 2763 1396 m 38 X s 2763 1402 m 38 X s
 2725 1406 m 76 X s 2763 1438 m 38 X s 2763 1457 m 38 X s 2763 1470 m 38 X s 2763 1481 m 38 X s 2763 1489 m 38 X s 2763 1496 m 38 X s 2763 1502 m 38 X s 2763 1508 m 38 X s 2725 1513 m 76 X s 2763 1545 m 38 X s 2763 1563 m 38 X s 2763 1577 m 38 X s
 2763 1587 m 38 X s 2763 1595 m 38 X s 2763 1602 m 38 X s 2763 1609 m 38 X s 2763 1614 m 38 X s 2725 1619 m 76 X s 2763 1651 m 38 X s 2763 1669 m 38 X s 2763 1683 m 38 X s 2763 1693 m 38 X s 2763 1701 m 38 X s 2763 1709 m 38 X s 2763 1715 m 38 X s
 2763 1720 m 38 X s 2725 1725 m 76 X s 2763 1757 m 38 X s 2763 1776 m 38 X s 2763 1789 m 38 X s 2763 1799 m 38 X s 2763 1808 m 38 X s 2763 1815 m 38 X s 2763 1821 m 38 X s 2763 1826 m 38 X s 2725 1831 m 76 X s 2763 1863 m 38 X s 2763 1882 m 38 X s
 2763 1895 m 38 X s 2763 1905 m 38 X s 2763 1914 m 38 X s 2763 1921 m 38 X s 2763 1927 m 38 X s 2763 1933 m 38 X s 2725 1937 m 76 X s 2763 1969 m 38 X s 2763 1988 m 38 X s 2763 2001 m 38 X s 2763 2012 m 38 X s 2763 2020 m 38 X s 2763 2027 m 38 X s
 2763 2033 m 38 X s 2763 2039 m 38 X s 2725 2044 m 76 X s 0 0 1 c 9 lw black 0 0 1 c 306 1264 m 1245 X 73 -1 d 220 X 73 -1 d 73 -1 d 73 -2 d 73 -5 d 74 -8 d 73 -17 d 73 -29 d 73 -47 d 74 -69 d 73 -89 d 73 -105 d 73 -115 d 73 -121 d s 1 0 0 c black 1
 0 0 c 306 1725 m 73 64 d 73 64 d 74 64 d 73 64 d 73 -20 d 73 -32 d 73 -32 d 74 -32 d 73 -32 d 73 -32 d 73 -32 d 74 -32 d 73 -32 d 73 -32 d 73 -32 d 73 -32 d 74 -32 d 73 -32 d 73 -32 d 73 -32 d 74 -32 d 73 -32 d 73 -32 d 73 -32 d 73 -32 d 74 -33 d
 73 -35 d 73 -39 d 73 -50 d 74 -69 d 73 -93 d 73 -111 d 73 -121 d 73 -126 d s 0 1 0 c[ 12 12] 0 sd black 0 1 0 c 306 1604 m 73 -13 d 73 -13 d 74 -13 d 73 -12 d 73 -13 d 73 -13 d 73 -13 d 74 -13 d 73 -12 d 73 -13 d 73 -13 d 74 -13 d 73 -13 d 73 -12 d
 73 -13 d 73 -13 d 74 -13 d 73 -13 d 73 -12 d 73 -13 d 74 -13 d 73 -13 d 73 -14 d 73 -15 d 73 -16 d 74 -19 d 73 -25 d 73 -34 d 73 -50 d 74 -68 d 73 -87 d 73 -104 d 73 -114 d 73 -120 d s 0.754 0.715 0.676 c[ 4 8] 0 sd black 0.754 0.715 0.676 c 306
 381 m 73 59 d 73 59 d 74 58 d 73 57 d 73 57 d 73 56 d 73 55 d 74 53 d 73 53 d 73 51 d 73 49 d 74 47 d 73 46 d 73 43 d 73 41 d 73 38 d 74 35 d 73 31 d 73 27 d 73 23 d 74 17 d 73 12 d 73 6 d 73 -2 d 73 -10 d 74 -18 d 73 -29 d 73 -40 d 73 -53 d 74 -67
 d 73 -84 d 73 -101 d 73 -121 d 73 -145 d s 0 1 1 c[ 12 16 4 16] 0 sd black 0 1 1 c 306 316 m 73 60 d 73 59 d 74 58 d 73 58 d 73 57 d 73 56 d 73 55 d 74 55 d 73 52 d 73 52 d 73 50 d 74 48 d 73 46 d 73 44 d 73 42 d 73 39 d 74 35 d 73 32 d 73 28 d 73
 24 d 74 18 d 73 13 d 73 7 d 73 -1 d 73 -9 d 74 -18 d 73 -28 d 73 -40 d 73 -52 d 74 -68 d 73 -83 d 73 -103 d 73 -122 d 73 -147 d s black[  ] 0 sd 3 lw 0.999 0.999 0.999 c 708 862 1621 323 bf black
 gsave  2948 2154 0 0 C 1798 1077 t 0 r /Helvetica-Bold findfont 54.7622 sf 0 0 m (NFW97) show NC gr  0 0 1 c 9 lw 1648 1099 m 124 X s black
 gsave  2948 2154 0 0 C 1798 904 t 0 r /Helvetica-Bold findfont 54.7622 sf 0 0 m (M98) show NC gr  1 0 0 c 1648 926 m 124 X s black
 gsave  2948 2154 0 0 C 1798 735 t 0 r /Helvetica-Bold findfont 54.7622 sf 0 0 m (DMS04) show NC gr  0 1 0 c[ 12 12] 0 sd 1648 754 m 124 X s black
 gsave  2948 2154 0 0 C 1798 566 t 0 r /Helvetica-Bold findfont 54.7622 sf 0 0 m (EINASTO_M06) show NC gr  0.754 0.715 0.676 c[ 4 8] 0 sd 1648 582 m 124 X s black
 gsave  2948 2154 0 0 C 1798 392 t 0 r /Helvetica-Bold findfont 54.7622 sf 0 0 m (EINASTO_N04) show NC gr  0 1 1 c[ 12 16 4 16] 0 sd 1648 409 m 124 X s black[  ] 0 sd 3 lw 0.999 0.999 0.999 c 737 108 1916 1831 bf black 6 lw 2647 1853 m -5 Y -5 X -4
 Y -18 X 4 Y -5 X 14 Y 5 X 4 Y 18 X -4 Y 5 X -9 Y cl s 2638 1853 m -5 X -5 Y 5 Y -4 X 4 Y 9 X -4 Y cl s
 gsave  2948 2154 0 0 C 1917 1871 t 0 r /Helvetica-Bold findfont 59.3257 sf 0 0 m (Clump mass = 1.0e+06 M) show NC gr  gr 
showpage
 gr 
%%Trailer
%%Pages:  1
 gr  gr  gr 
%%EOF
