%!PS-Adobe-2.0
%%Title: /local/cc234/RECHERCHE/CLUMPS/CLUMPY_v2011.05/DocImages/r2rho.ps: r2rho
%%Creator: ROOT Version 5.23/04
%%CreationDate: Thu Jul 21 17:57:34 2011
%%Orientation: Landscape
%%EndComments
%%BeginProlog
/s {stroke} def /l {lineto} def /m {moveto} def /t {translate} def
/sw {stringwidth} def /r {rotate} def /rl {roll}  def /R {repeat} def
/d {rlineto} def /rm {rmoveto} def /gr {grestore} def /f {eofill} def
/c {setrgbcolor} def /black {0 setgray} def /sd {setdash} def
/cl {closepath} def /sf {scalefont setfont} def /lw {setlinewidth} def
/box {m dup 0 exch d exch 0 d 0 exch neg d cl} def
/NC{systemdict begin initclip end}def/C{NC box clip newpath}def
/bl {box s} def /bf {box f} def /Y { 0 exch d} def /X { 0 d} def 
/mp {newpath /y exch def /x exch def} def
/side {[w .77 mul w .23 mul] .385 w mul sd w 0 l currentpoint t -144 r} def
/mr {mp x y w2 0 360 arc} def /m24 {mr s} def /m20 {mr f} def
/mb {mp x y w2 add m w2 neg 0 d 0 w neg d w 0 d 0 w d cl} def
/mt {mp x y w2 add m w2 neg w neg d w 0 d cl} def
/m21 {mb f} def /m25 {mb s} def /m22 {mt f} def /m26{mt s} def
/m23 {mp x y w2 sub m w2 w d w neg 0 d cl f} def
/m27 {mp x y w2 add m w3 neg w2 neg d w3 w2 neg d w3 w2 d cl s} def
/m28 {mp x w2 sub y w2 sub w3 add m w3 0 d  0 w3 neg d w3 0 d 0 w3 d w3 0 d  0 w3 d w3 neg 0 d 0 w3 d w3 neg 0 d
 0 w3 neg d w3 neg 0 d cl s } def
/m29 {mp gsave x w2 sub y w2 add w3 sub m currentpoint t
 4 {side} repeat cl fill gr} def
/m30 {mp gsave x w2 sub y w2 add w3 sub m currentpoint t
 4 {side} repeat cl s gr} def
/m31 {mp x y w2 sub m 0 w d x w2 sub y m w 0 d x w2 sub y w2 add m w w neg d x w2 sub y w2
 sub m w w d s} def
/m2 {mp x y w2 sub m 0 w d x w2 sub y m w 0 d s} def
/m5 {mp x w2 sub y w2 sub m w w d x w2 sub y w2 add m w w neg d s} def
/reEncode {exch findfont dup length dict begin {1 index /FID eq  {pop pop} {def} ifelse } forall /Encoding exch def currentdict end dup /FontName get exch definefont pop } def [/Times-Bold /Times-Italic /Times-BoldItalic /Helvetica
 /Helvetica-Oblique /Helvetica-Bold /Helvetica-BoldOblique /Courier /Courier-Oblique /Courier-Bold /Courier-BoldOblique /Times-Roman /AvantGarde-Book /AvantGarde-BookOblique /AvantGarde-Demi /AvantGarde-DemiOblique /Bookman-Demi
 /Bookman-DemiItalic /Bookman-Light /Bookman-LightItalic /Helvetica-Narrow /Helvetica-Narrow-Bold /Helvetica-Narrow-BoldOblique /Helvetica-Narrow-Oblique /NewCenturySchlbk-Roman /NewCenturySchlbk-Bold
 /NewCenturySchlbk-BoldItalic /NewCenturySchlbk-Italic /Palatino-Bold /Palatino-BoldItalic /Palatino-Italic /Palatino-Roman ] {ISOLatin1Encoding reEncode } forall
/oshow {gsave [] 0 sd true charpath stroke gr} def
/stwn { /fs exch def /fn exch def /text exch def fn findfont fs sf
 text sw pop xs add /xs exch def} def
/stwb { /fs exch def /fn exch def /nbas exch def /textf exch deftextf length /tlen exch def nbas tlen gt {/nbas tlendef} iffn findfont fs sf textf dup length nbas sub nbas getinterval sw
pop neg xs add /xs exch def} def
/Zone {/iy exch def /ix exch def  ix 1 sub  3144 mul  1 iy sub  2224
 mul t} def
%%EndProlog
%%BeginSetup
%%EndSetup
newpath  gsave  90 r 0 -594 t  28 20 t .25 .25 scale  gsave 
%%Page: 1 1
 gsave  gsave 
 1 1 Zone
 gsave  0 0 t black[  ] 0 sd 3 lw 0.999 0.999 0.999 c 2948 2154 0 0 bf black 1 1 1 c 2506 1831 295 215 bf black 2506 1831 295 215 bl 1 1 1 c 2506 1831 295 215 bf black 2506 1831 295 215 bl 295 215 m 2506 X s
 gsave  2948 2154 0 0 C 2752 5 t 0 r /Times-Roman findfont 54.7622 sf 0 0 m (\2552) show NC gr 
 gsave  2948 2154 0 0 C 2670 32 t 0 r /Times-Roman findfont 82.1433 sf 0 0 m (r/r) show NC gr  334 243 m -28 Y s 377 243 m -28 Y s 408 243 m -28 Y s 431 243 m -28 Y s 451 243 m -28 Y s 467 243 m -28 Y s 481 243 m -28 Y s 493 243 m -28 Y s 504 270 m
 -55 Y s
 gsave  2948 2154 0 0 C 520 151 t 0 r /Times-Roman findfont 54.7622 sf 0 0 m (\2558) show NC gr 
 gsave  2948 2154 0 0 C 438 110 t 0 r /Times-Roman findfont 82.1433 sf 0 0 m (10) show NC gr  578 243 m -28 Y s 621 243 m -28 Y s 651 243 m -28 Y s 675 243 m -28 Y s 694 243 m -28 Y s 710 243 m -28 Y s 724 243 m -28 Y s 737 243 m -28 Y s 748 270 m
 -55 Y s
 gsave  2948 2154 0 0 C 762 151 t 0 r /Times-Roman findfont 54.7622 sf 0 0 m (\2557) show NC gr 
 gsave  2948 2154 0 0 C 680 110 t 0 r /Times-Roman findfont 82.1433 sf 0 0 m (10) show NC gr  821 243 m -28 Y s 864 243 m -28 Y s 894 243 m -28 Y s 918 243 m -28 Y s 937 243 m -28 Y s 953 243 m -28 Y s 967 243 m -28 Y s 980 243 m -28 Y s 991 270 m
 -55 Y s
 gsave  2948 2154 0 0 C 1009 151 t 0 r /Times-Roman findfont 54.7622 sf 0 0 m (\2556) show NC gr 
 gsave  2948 2154 0 0 C 926 110 t 0 r /Times-Roman findfont 82.1433 sf 0 0 m (10) show NC gr  1064 243 m -28 Y s 1107 243 m -28 Y s 1137 243 m -28 Y s 1161 243 m -28 Y s 1180 243 m -28 Y s 1197 243 m -28 Y s 1211 243 m -28 Y s 1223 243 m -28 Y s
 1234 270 m -55 Y s
 gsave  2948 2154 0 0 C 1250 151 t 0 r /Times-Roman findfont 54.7622 sf 0 0 m (\2555) show NC gr 
 gsave  2948 2154 0 0 C 1168 110 t 0 r /Times-Roman findfont 82.1433 sf 0 0 m (10) show NC gr  1307 243 m -28 Y s 1350 243 m -28 Y s 1381 243 m -28 Y s 1404 243 m -28 Y s 1423 243 m -28 Y s 1440 243 m -28 Y s 1454 243 m -28 Y s 1466 243 m -28 Y s
 1477 270 m -55 Y s
 gsave  2948 2154 0 0 C 1492 146 t 0 r /Times-Roman findfont 54.7622 sf 0 0 m (\2554) show NC gr 
 gsave  2948 2154 0 0 C 1410 110 t 0 r /Times-Roman findfont 82.1433 sf 0 0 m (10) show NC gr  1551 243 m -28 Y s 1594 243 m -28 Y s 1624 243 m -28 Y s 1647 243 m -28 Y s 1667 243 m -28 Y s 1683 243 m -28 Y s 1697 243 m -28 Y s 1710 243 m -28 Y s
 1721 270 m -55 Y s
 gsave  2948 2154 0 0 C 1739 151 t 0 r /Times-Roman findfont 54.7622 sf 0 0 m (\2553) show NC gr 
 gsave  2948 2154 0 0 C 1657 110 t 0 r /Times-Roman findfont 82.1433 sf 0 0 m (10) show NC gr  1794 243 m -28 Y s 1837 243 m -28 Y s 1867 243 m -28 Y s 1891 243 m -28 Y s 1910 243 m -28 Y s 1926 243 m -28 Y s 1940 243 m -28 Y s 1953 243 m -28 Y s
 1964 270 m -55 Y s
 gsave  2948 2154 0 0 C 1981 146 t 0 r /Times-Roman findfont 54.7622 sf 0 0 m (\2552) show NC gr 
 gsave  2948 2154 0 0 C 1898 110 t 0 r /Times-Roman findfont 82.1433 sf 0 0 m (10) show NC gr  2037 243 m -28 Y s 2080 243 m -28 Y s 2110 243 m -28 Y s 2134 243 m -28 Y s 2153 243 m -28 Y s 2169 243 m -28 Y s 2184 243 m -28 Y s 2196 243 m -28 Y s
 2207 270 m -55 Y s
 gsave  2948 2154 0 0 C 2222 146 t 0 r /Times-Roman findfont 54.7622 sf 0 0 m (\2551) show NC gr 
 gsave  2948 2154 0 0 C 2140 110 t 0 r /Times-Roman findfont 82.1433 sf 0 0 m (10) show NC gr  2280 243 m -28 Y s 2323 243 m -28 Y s 2354 243 m -28 Y s 2377 243 m -28 Y s 2396 243 m -28 Y s 2413 243 m -28 Y s 2427 243 m -28 Y s 2439 243 m -28 Y s
 2450 270 m -55 Y s
 gsave  2948 2154 0 0 C 2450 106 t 0 r  -16 0 t /Times-Roman findfont 82.1433 sf 0 0 m (1) show NC gr  2524 243 m -28 Y s 2566 243 m -28 Y s 2597 243 m -28 Y s 2620 243 m -28 Y s 2640 243 m -28 Y s 2656 243 m -28 Y s 2670 243 m -28 Y s 2683 243 m
 -28 Y s 2694 270 m -55 Y s
 gsave  2948 2154 0 0 C 2694 106 t 0 r  -41 0 t /Times-Roman findfont 82.1433 sf 0 0 m (10) show NC gr  2767 243 m -28 Y s 295 2046 m 2506 X s 334 2019 m 27 Y s 377 2019 m 27 Y s 408 2019 m 27 Y s 431 2019 m 27 Y s 451 2019 m 27 Y s 467 2019 m 27 Y
 s 481 2019 m 27 Y s 493 2019 m 27 Y s 504 1991 m 55 Y s 578 2019 m 27 Y s 621 2019 m 27 Y s 651 2019 m 27 Y s 675 2019 m 27 Y s 694 2019 m 27 Y s 710 2019 m 27 Y s 724 2019 m 27 Y s 737 2019 m 27 Y s 748 1991 m 55 Y s 821 2019 m 27 Y s 864 2019 m
 27 Y s 894 2019 m 27 Y s 918 2019 m 27 Y s 937 2019 m 27 Y s 953 2019 m 27 Y s 967 2019 m 27 Y s 980 2019 m 27 Y s 991 1991 m 55 Y s 1064 2019 m 27 Y s 1107 2019 m 27 Y s 1137 2019 m 27 Y s 1161 2019 m 27 Y s 1180 2019 m 27 Y s 1197 2019 m 27 Y s
 1211 2019 m 27 Y s 1223 2019 m 27 Y s 1234 1991 m 55 Y s 1307 2019 m 27 Y s 1350 2019 m 27 Y s 1381 2019 m 27 Y s 1404 2019 m 27 Y s 1423 2019 m 27 Y s 1440 2019 m 27 Y s 1454 2019 m 27 Y s 1466 2019 m 27 Y s 1477 1991 m 55 Y s 1551 2019 m 27 Y s
 1594 2019 m 27 Y s 1624 2019 m 27 Y s 1647 2019 m 27 Y s 1667 2019 m 27 Y s 1683 2019 m 27 Y s 1697 2019 m 27 Y s 1710 2019 m 27 Y s 1721 1991 m 55 Y s 1794 2019 m 27 Y s 1837 2019 m 27 Y s 1867 2019 m 27 Y s 1891 2019 m 27 Y s 1910 2019 m 27 Y s
 1926 2019 m 27 Y s 1940 2019 m 27 Y s 1953 2019 m 27 Y s 1964 1991 m 55 Y s 2037 2019 m 27 Y s 2080 2019 m 27 Y s 2110 2019 m 27 Y s 2134 2019 m 27 Y s 2153 2019 m 27 Y s 2169 2019 m 27 Y s 2184 2019 m 27 Y s 2196 2019 m 27 Y s 2207 1991 m 55 Y s
 2280 2019 m 27 Y s 2323 2019 m 27 Y s 2354 2019 m 27 Y s 2377 2019 m 27 Y s 2396 2019 m 27 Y s 2413 2019 m 27 Y s 2427 2019 m 27 Y s 2439 2019 m 27 Y s 2450 1991 m 55 Y s 2524 2019 m 27 Y s 2566 2019 m 27 Y s 2597 2019 m 27 Y s 2620 2019 m 27 Y s
 2640 2019 m 27 Y s 2656 2019 m 27 Y s 2670 2019 m 27 Y s 2683 2019 m 27 Y s 2694 1991 m 55 Y s 2767 2019 m 27 Y s 295 215 m 1831 Y s
 gsave  2948 2154 0 0 C 78 1866 t 90 r /Times-Roman findfont 91.2703 sf 0 0 m (/kpc]) show NC gr  6 lw 110 1876 m 9 X -5 Y 4 X -5 Y 5 X -18 Y -5 -4 d -4 -5 d -5 -4 d -14 X 4 Y -4 X 5 Y -5 X 4 Y -4 5 d 4 Y 4 5 d 4 Y 5 5 d 4 5 d 10 X cl s 110 1862 m
 -5 Y 4 X -4 Y -9 X 9 Y 5 X cl s
 gsave  2948 2154 0 0 C 78 1588 t 90 r /Times-Roman findfont 91.2703 sf 0 0 m (\(r\)  [M) show NC gr 
 gsave  2948 2154 0 0 C 78 1542 t 90 r /Symbol findfont 91.2703 sf 0 0 m (r) show NC gr 
 gsave  2948 2154 0 0 C 78 1520 t 90 r /Times-Roman findfont 91.2703 sf 0 0 m ( ) show NC gr 
 gsave  2948 2154 0 0 C 50 1492 t 90 r /Times-Roman findfont 59.3257 sf 0 0 m (2) show NC gr 
 gsave  2948 2154 0 0 C 78 1460 t 90 r /Times-Roman findfont 91.2703 sf 0 0 m (r) show NC gr  3 lw 332 229 m -37 X s 332 242 m -37 X s 332 252 m -37 X s 332 260 m -37 X s 332 268 m -37 X s 332 274 m -37 X s 370 280 m -75 X s
 gsave  2948 2154 0 0 C 224 283 t 0 r /Times-Roman findfont 54.7622 sf 0 0 m (\2558) show NC gr 
 gsave  2948 2154 0 0 C 141 246 t 0 r /Times-Roman findfont 82.1433 sf 0 0 m (10) show NC gr  332 318 m -37 X s 332 341 m -37 X s 332 357 m -37 X s 332 369 m -37 X s 332 379 m -37 X s 332 388 m -37 X s 332 395 m -37 X s 332 402 m -37 X s 370 408 m
 -75 X s
 gsave  2948 2154 0 0 C 224 415 t 0 r /Times-Roman findfont 54.7622 sf 0 0 m (\2557) show NC gr 
 gsave  2948 2154 0 0 C 141 374 t 0 r /Times-Roman findfont 82.1433 sf 0 0 m (10) show NC gr  332 446 m -37 X s 332 469 m -37 X s 332 485 m -37 X s 332 497 m -37 X s 332 507 m -37 X s 332 516 m -37 X s 332 523 m -37 X s 332 530 m -37 X s 370 536 m
 -75 X s
 gsave  2948 2154 0 0 C 224 538 t 0 r /Times-Roman findfont 54.7622 sf 0 0 m (\2556) show NC gr 
 gsave  2948 2154 0 0 C 141 502 t 0 r /Times-Roman findfont 82.1433 sf 0 0 m (10) show NC gr  332 574 m -37 X s 332 597 m -37 X s 332 613 m -37 X s 332 625 m -37 X s 332 635 m -37 X s 332 644 m -37 X s 332 651 m -37 X s 332 658 m -37 X s 370 663 m
 -75 X s
 gsave  2948 2154 0 0 C 224 671 t 0 r /Times-Roman findfont 54.7622 sf 0 0 m (\2555) show NC gr 
 gsave  2948 2154 0 0 C 141 630 t 0 r /Times-Roman findfont 82.1433 sf 0 0 m (10) show NC gr  332 702 m -37 X s 332 724 m -37 X s 332 740 m -37 X s 332 753 m -37 X s 332 763 m -37 X s 332 771 m -37 X s 332 779 m -37 X s 332 785 m -37 X s 370 791 m
 -75 X s
 gsave  2948 2154 0 0 C 224 789 t 0 r /Times-Roman findfont 54.7622 sf 0 0 m (\2554) show NC gr 
 gsave  2948 2154 0 0 C 141 758 t 0 r /Times-Roman findfont 82.1433 sf 0 0 m (10) show NC gr  332 830 m -37 X s 332 852 m -37 X s 332 868 m -37 X s 332 881 m -37 X s 332 891 m -37 X s 332 899 m -37 X s 332 907 m -37 X s 332 913 m -37 X s 370 919 m
 -75 X s
 gsave  2948 2154 0 0 C 228 922 t 0 r /Times-Roman findfont 54.7622 sf 0 0 m (\2553) show NC gr 
 gsave  2948 2154 0 0 C 146 885 t 0 r /Times-Roman findfont 82.1433 sf 0 0 m (10) show NC gr  332 957 m -37 X s 332 980 m -37 X s 332 996 m -37 X s 332 1008 m -37 X s 332 1018 m -37 X s 332 1027 m -37 X s 332 1034 m -37 X s 332 1041 m -37 X s 370
 1047 m -75 X s
 gsave  2948 2154 0 0 C 224 1045 t 0 r /Times-Roman findfont 54.7622 sf 0 0 m (\2552) show NC gr 
 gsave  2948 2154 0 0 C 141 1013 t 0 r /Times-Roman findfont 82.1433 sf 0 0 m (10) show NC gr  332 1085 m -37 X s 332 1108 m -37 X s 332 1124 m -37 X s 332 1136 m -37 X s 332 1146 m -37 X s 332 1155 m -37 X s 332 1162 m -37 X s 332 1169 m -37 X s
 370 1175 m -75 X s
 gsave  2948 2154 0 0 C 228 1173 t 0 r /Times-Roman findfont 54.7622 sf 0 0 m (\2551) show NC gr 
 gsave  2948 2154 0 0 C 146 1141 t 0 r /Times-Roman findfont 82.1433 sf 0 0 m (10) show NC gr  332 1213 m -37 X s 332 1236 m -37 X s 332 1252 m -37 X s 332 1264 m -37 X s 332 1274 m -37 X s 332 1283 m -37 X s 332 1290 m -37 X s 332 1297 m -37 X s
 370 1302 m -75 X s
 gsave  2948 2154 0 0 C 271 1270 t 0 r  -32 0 t /Times-Roman findfont 82.1433 sf 0 0 m (1) show NC gr  332 1341 m -37 X s 332 1363 m -37 X s 332 1379 m -37 X s 332 1392 m -37 X s 332 1402 m -37 X s 332 1410 m -37 X s 332 1418 m -37 X s 332 1424 m
 -37 X s 370 1430 m -75 X s
 gsave  2948 2154 0 0 C 271 1397 t 0 r  -83 0 t /Times-Roman findfont 82.1433 sf 0 0 m (10) show NC gr  332 1469 m -37 X s 332 1491 m -37 X s 332 1507 m -37 X s 332 1519 m -37 X s 332 1530 m -37 X s 332 1538 m -37 X s 332 1546 m -37 X s 332 1552 m
 -37 X s 370 1558 m -75 X s
 gsave  2948 2154 0 0 C 242 1556 t 0 r /Times-Roman findfont 54.7622 sf 0 0 m (2) show NC gr 
 gsave  2948 2154 0 0 C 160 1524 t 0 r /Times-Roman findfont 82.1433 sf 0 0 m (10) show NC gr  332 1596 m -37 X s 332 1619 m -37 X s 332 1635 m -37 X s 332 1647 m -37 X s 332 1657 m -37 X s 332 1666 m -37 X s 332 1673 m -37 X s 332 1680 m -37 X s
 370 1686 m -75 X s
 gsave  2948 2154 0 0 C 246 1689 t 0 r /Times-Roman findfont 54.7622 sf 0 0 m (3) show NC gr 
 gsave  2948 2154 0 0 C 164 1652 t 0 r /Times-Roman findfont 82.1433 sf 0 0 m (10) show NC gr  332 1724 m -37 X s 332 1747 m -37 X s 332 1763 m -37 X s 332 1775 m -37 X s 332 1785 m -37 X s 332 1794 m -37 X s 332 1801 m -37 X s 332 1808 m -37 X s
 370 1814 m -75 X s
 gsave  2948 2154 0 0 C 242 1812 t 0 r /Times-Roman findfont 54.7622 sf 0 0 m (4) show NC gr 
 gsave  2948 2154 0 0 C 160 1780 t 0 r /Times-Roman findfont 82.1433 sf 0 0 m (10) show NC gr  332 1852 m -37 X s 332 1875 m -37 X s 332 1890 m -37 X s 332 1903 m -37 X s 332 1913 m -37 X s 332 1922 m -37 X s 332 1929 m -37 X s 332 1936 m -37 X s
 370 1941 m -75 X s
 gsave  2948 2154 0 0 C 242 1949 t 0 r /Times-Roman findfont 54.7622 sf 0 0 m (5) show NC gr 
 gsave  2948 2154 0 0 C 160 1908 t 0 r /Times-Roman findfont 82.1433 sf 0 0 m (10) show NC gr  332 1980 m -37 X s 332 2002 m -37 X s 332 2018 m -37 X s 332 2031 m -37 X s 332 2041 m -37 X s 2801 215 m 1831 Y s 2763 229 m 38 X s 2763 242 m 38 X s
 2763 252 m 38 X s 2763 260 m 38 X s 2763 268 m 38 X s 2763 274 m 38 X s 2725 280 m 76 X s 2763 318 m 38 X s 2763 341 m 38 X s 2763 357 m 38 X s 2763 369 m 38 X s 2763 379 m 38 X s 2763 388 m 38 X s 2763 395 m 38 X s 2763 402 m 38 X s 2725 408 m 76
 X s 2763 446 m 38 X s 2763 469 m 38 X s 2763 485 m 38 X s 2763 497 m 38 X s 2763 507 m 38 X s 2763 516 m 38 X s 2763 523 m 38 X s 2763 530 m 38 X s 2725 536 m 76 X s 2763 574 m 38 X s 2763 597 m 38 X s 2763 613 m 38 X s 2763 625 m 38 X s 2763 635 m
 38 X s 2763 644 m 38 X s 2763 651 m 38 X s 2763 658 m 38 X s 2725 663 m 76 X s 2763 702 m 38 X s 2763 724 m 38 X s 2763 740 m 38 X s 2763 753 m 38 X s 2763 763 m 38 X s 2763 771 m 38 X s 2763 779 m 38 X s 2763 785 m 38 X s 2725 791 m 76 X s 2763
 830 m 38 X s 2763 852 m 38 X s 2763 868 m 38 X s 2763 881 m 38 X s 2763 891 m 38 X s 2763 899 m 38 X s 2763 907 m 38 X s 2763 913 m 38 X s 2725 919 m 76 X s 2763 957 m 38 X s 2763 980 m 38 X s 2763 996 m 38 X s 2763 1008 m 38 X s 2763 1018 m 38 X s
 2763 1027 m 38 X s 2763 1034 m 38 X s 2763 1041 m 38 X s 2725 1047 m 76 X s 2763 1085 m 38 X s 2763 1108 m 38 X s 2763 1124 m 38 X s 2763 1136 m 38 X s 2763 1146 m 38 X s 2763 1155 m 38 X s 2763 1162 m 38 X s 2763 1169 m 38 X s 2725 1175 m 76 X s
 2763 1213 m 38 X s 2763 1236 m 38 X s 2763 1252 m 38 X s 2763 1264 m 38 X s 2763 1274 m 38 X s 2763 1283 m 38 X s 2763 1290 m 38 X s 2763 1297 m 38 X s 2725 1302 m 76 X s 2763 1341 m 38 X s 2763 1363 m 38 X s 2763 1379 m 38 X s 2763 1392 m 38 X s
 2763 1402 m 38 X s 2763 1410 m 38 X s 2763 1418 m 38 X s 2763 1424 m 38 X s 2725 1430 m 76 X s 2763 1469 m 38 X s 2763 1491 m 38 X s 2763 1507 m 38 X s 2763 1519 m 38 X s 2763 1530 m 38 X s 2763 1538 m 38 X s 2763 1546 m 38 X s 2763 1552 m 38 X s
 2725 1558 m 76 X s 2763 1596 m 38 X s 2763 1619 m 38 X s 2763 1635 m 38 X s 2763 1647 m 38 X s 2763 1657 m 38 X s 2763 1666 m 38 X s 2763 1673 m 38 X s 2763 1680 m 38 X s 2725 1686 m 76 X s 2763 1724 m 38 X s 2763 1747 m 38 X s 2763 1763 m 38 X s
 2763 1775 m 38 X s 2763 1785 m 38 X s 2763 1794 m 38 X s 2763 1801 m 38 X s 2763 1808 m 38 X s 2725 1814 m 76 X s 2763 1852 m 38 X s 2763 1875 m 38 X s 2763 1890 m 38 X s 2763 1903 m 38 X s 2763 1913 m 38 X s 2763 1922 m 38 X s 2763 1929 m 38 X s
 2763 1936 m 38 X s 2725 1941 m 76 X s 2763 1980 m 38 X s 2763 2002 m 38 X s 2763 2018 m 38 X s 2763 2031 m 38 X s 2763 2041 m 38 X s 0 0 1 c 9 lw black 0 0 1 c 306 897 m 73 38 d 73 39 d 74 38 d 73 39 d 73 38 d 73 39 d 73 38 d 74 39 d 73 38 d 73 39
 d 73 38 d 74 39 d 73 38 d 73 39 d 73 38 d 73 38 d 74 39 d 73 38 d 73 39 d 73 38 d 74 38 d 73 39 d 73 37 d 73 37 d 73 36 d 74 33 d 73 29 d 73 21 d 73 10 d 74 -3 d 73 -15 d 73 -24 d 73 -31 d 73 -35 d s 1 0 0 c black 1 0 0 c 306 1175 m 73 77 d 73 76 d
 74 77 d 73 77 d 73 27 d 73 19 d 73 19 d 74 20 d 73 19 d 73 19 d 73 19 d 74 19 d 73 20 d 73 19 d 73 19 d 73 19 d 74 20 d 73 19 d 73 19 d 73 19 d 74 20 d 73 19 d 73 19 d 73 19 d 73 19 d 74 19 d 73 18 d 73 14 d 73 9 d 74 -3 d 73 -18 d 73 -28 d 73 -35
 d 73 -37 d s 0 1 0 c[ 12 12] 0 sd black 0 1 0 c 306 1102 m 73 30 d 73 31 d 74 31 d 73 31 d 73 31 d 73 30 d 73 31 d 74 31 d 73 31 d 73 30 d 73 31 d 74 31 d 73 31 d 73 30 d 73 31 d 73 31 d 74 31 d 73 31 d 73 30 d 73 31 d 74 31 d 73 30 d 73 30 d 73 30
 d 73 29 d 74 27 d 73 23 d 73 18 d 73 9 d 74 -3 d 73 -14 d 73 -24 d 73 -30 d 73 -34 d s 0.754 0.715 0.676 c[ 4 8] 0 sd black 0.754 0.715 0.676 c 306 366 m 73 74 d 73 74 d 74 73 d 73 73 d 73 73 d 73 72 d 73 71 d 74 71 d 73 70 d 73 69 d 73 68 d 74 67
 d 73 66 d 73 65 d 73 63 d 73 61 d 74 59 d 73 58 d 73 54 d 73 53 d 74 49 d 73 45 d 73 42 d 73 37 d 73 33 d 74 27 d 73 22 d 73 14 d 73 6 d 74 -1 d 73 -12 d 73 -23 d 73 -34 d 73 -48 d s 0 1 1 c[ 12 16 4 16] 0 sd black 0 1 1 c 306 327 m 73 74 d 73 74 d
 74 74 d 73 73 d 73 73 d 73 72 d 73 72 d 74 71 d 73 70 d 73 70 d 73 68 d 74 68 d 73 66 d 73 65 d 73 63 d 73 62 d 74 60 d 73 58 d 73 55 d 73 53 d 74 49 d 73 47 d 73 42 d 73 38 d 73 33 d 74 28 d 73 21 d 73 15 d 73 7 d 74 -2 d 73 -12 d 73 -23 d 73 -36
 d 73 -49 d s black[  ] 0 sd 3 lw 0.999 0.999 0.999 c 708 862 1916 323 bf black
 gsave  2948 2154 0 0 C 2090 1077 t 0 r /Helvetica-Bold findfont 54.7622 sf 0 0 m (NFW97) show NC gr  0 0 1 c 9 lw 1943 1099 m 124 X s black
 gsave  2948 2154 0 0 C 2090 904 t 0 r /Helvetica-Bold findfont 54.7622 sf 0 0 m (M98) show NC gr  1 0 0 c 1943 926 m 124 X s black
 gsave  2948 2154 0 0 C 2090 735 t 0 r /Helvetica-Bold findfont 54.7622 sf 0 0 m (DMS04) show NC gr  0 1 0 c[ 12 12] 0 sd 1943 754 m 124 X s black
 gsave  2948 2154 0 0 C 2090 566 t 0 r /Helvetica-Bold findfont 54.7622 sf 0 0 m (EINASTO_M06) show NC gr  0.754 0.715 0.676 c[ 4 8] 0 sd 1943 582 m 124 X s black
 gsave  2948 2154 0 0 C 2090 392 t 0 r /Helvetica-Bold findfont 54.7622 sf 0 0 m (EINASTO_N04) show NC gr  0 1 1 c[ 12 16 4 16] 0 sd 1943 409 m 124 X s black[  ] 0 sd 3 lw 0.999 0.999 0.999 c 737 108 442 1831 bf black 6 lw 1173 1853 m -5 Y -5 X -4 Y
 -18 X 4 Y -5 X 14 Y 5 X 4 Y 18 X -4 Y 5 X -9 Y cl s 1164 1853 m -5 X -5 Y 5 Y -4 X 4 Y 9 X -4 Y cl s
 gsave  2948 2154 0 0 C 443 1871 t 0 r /Helvetica-Bold findfont 59.3257 sf 0 0 m (Clump mass = 1.0e+06 M) show NC gr  gr 
showpage
 gr 
%%Trailer
%%Pages:  1
 gr  gr  gr 
%%EOF
