TypeData
Vel
R[kpc]  dR[kpc]   V[km/s_or_km^2/s^2] dV[km/s_or_km^2/s^2] MembershipProba RA[deg] Dec[deg]
1.028311e-01  0.   -46.800000  4.600000 0.000000e+00 1.515583e+02 1.591003e+01
7.868470e-02  0.   -66.700000  2.400000 0.000000e+00 1.515593e+02 1.607353e+01
8.213627e-02  0.   150.100000  3.300000 0.000000e+00 1.515596e+02 1.601414e+01
8.332036e-02  0.   70.100000  2.200000 0.000000e+00 1.515600e+02 1.600361e+01
9.925802e-02  0.   45.200000  2.900000 0.000000e+00 1.515616e+02 1.592019e+01
8.343893e-02  0.   29.100000  2.900000 0.000000e+00 1.515620e+02 1.614964e+01
9.580628e-02  0.   54.300000  2.600000 0.000000e+00 1.515632e+02 1.593239e+01
8.006595e-02  0.   -6.700000  2.700000 0.000000e+00 1.515647e+02 1.601581e+01
7.461953e-02  0.   -10.000000  2.400000 0.000000e+00 1.515706e+02 1.609008e+01
9.231514e-02  0.   1.700000  2.400000 0.000000e+00 1.515723e+02 1.593517e+01
7.770154e-02  0.   59.200000  2.500000 0.000000e+00 1.515737e+02 1.613892e+01
1.032464e-01  0.   -34.600000  7.400000 0.000000e+00 1.515761e+02 1.588989e+01
7.163731e-02  0.   268.600000  3.100000 9.000000e-03 1.515781e+02 1.606083e+01
8.071686e-02  0.   57.600000  2.200000 0.000000e+00 1.515798e+02 1.597717e+01
7.656549e-02  0.   124.800000  2.300000 0.000000e+00 1.515809e+02 1.599844e+01
7.179724e-02  0.   -4.600000  3.100000 0.000000e+00 1.515821e+02 1.603300e+01
7.196354e-02  0.   -6.500000  2.200000 0.000000e+00 1.515823e+02 1.603050e+01
7.376784e-02  0.   305.500000  4.300000 0.000000e+00 1.515833e+02 1.601169e+01
6.949470e-02  0.   111.000000  8.500000 0.000000e+00 1.515836e+02 1.608553e+01
6.865293e-02  0.   -54.500000  2.200000 0.000000e+00 1.515854e+02 1.607850e+01
6.846663e-02  0.   50.900000  2.200000 0.000000e+00 1.515859e+02 1.606986e+01
6.908616e-02  0.   221.300000  2.300000 0.000000e+00 1.515862e+02 1.609944e+01
7.351736e-02  0.   31.500000  2.800000 0.000000e+00 1.515867e+02 1.614253e+01
6.977901e-02  0.   66.500000  3.000000 0.000000e+00 1.515873e+02 1.611392e+01
6.570524e-02  0.   214.400000  3.200000 5.200000e-01 1.515932e+02 1.608119e+01
6.725311e-03  0.   224.200000  6.200000 9.500000e-01 1.517462e+02 1.607694e+01
1.792010e-02  0.   212.800000  6.800000 9.690000e-01 1.517465e+02 1.611522e+01
1.792010e-02  0.   201.600000  5.700000 0.000000e+00 1.517465e+02 1.611522e+01
4.380086e-02  0.   -18.500000  2.400000 0.000000e+00 1.517473e+02 1.618164e+01
6.400153e-03  0.   16.400000  2.500000 0.000000e+00 1.517479e+02 1.606770e+01
5.222109e-02  0.   0.800000  10.000000 0.000000e+00 1.517487e+02 1.620294e+01
1.515092e-02  0.   204.100000  4.900000 9.920000e-01 1.517490e+02 1.603847e+01
8.700140e-02  0.   -19.400000  2.600000 0.000000e+00 1.517496e+02 1.585728e+01
8.700140e-02  0.   -12.700000  2.700000 0.000000e+00 1.517496e+02 1.585728e+01
3.245014e-02  0.   -20.800000  2.200000 0.000000e+00 1.517497e+02 1.615339e+01
5.526693e-03  0.   172.200000  4.900000 3.930000e-01 1.517498e+02 1.606908e+01
5.526693e-03  0.   197.300000  13.000000 0.000000e+00 1.517498e+02 1.606908e+01
9.069619e-02  0.   -122.500000  7.500000 0.000000e+00 1.517506e+02 1.584800e+01
8.448992e-02  0.   66.000000  2.200000 0.000000e+00 1.517525e+02 1.586339e+01
8.448992e-02  0.   67.900000  2.200000 0.000000e+00 1.517525e+02 1.586339e+01
1.234573e-02  0.   203.900000  10.000000 9.880000e-01 1.517530e+02 1.610272e+01
4.575390e-03  0.   217.800000  13.100000 9.850000e-01 1.517538e+02 1.606689e+01
4.693413e-03  0.   217.800000  5.200000 9.910000e-01 1.517544e+02 1.608153e+01
1.644216e-02  0.   209.200000  2.700000 9.950000e-01 1.517556e+02 1.603333e+01
1.644216e-02  0.   217.600000  5.100000 0.000000e+00 1.517556e+02 1.603333e+01
2.358628e-02  0.   108.500000  3.400000 0.000000e+00 1.517558e+02 1.613192e+01
3.376905e-03  0.   222.200000  6.300000 9.510000e-01 1.517558e+02 1.607794e+01
1.265473e-02  0.   -1.700000  2.400000 0.000000e+00 1.517560e+02 1.604289e+01
9.406581e-03  0.   200.900000  6.100000 9.870000e-01 1.517561e+02 1.605122e+01
2.502527e-02  0.   -35.300000  2.400000 0.000000e+00 1.517571e+02 1.613567e+01
2.872127e-02  0.   123.000000  3.700000 1.000000e-03 1.517579e+02 1.614497e+01
9.941384e-02  0.   149.100000  16.700000 6.000000e-03 1.517583e+02 1.582600e+01
5.110973e-02  0.   219.200000  7.500000 8.980000e-01 1.517588e+02 1.594636e+01
8.651645e-02  0.   118.900000  6.000000 0.000000e+00 1.517596e+02 1.628911e+01
7.177579e-02  0.   111.200000  2.400000 0.000000e+00 1.517600e+02 1.625239e+01
9.029314e-02  0.   208.400000  2.400000 8.860000e-01 1.517603e+02 1.584869e+01
9.029314e-02  0.   209.900000  2.300000 0.000000e+00 1.517603e+02 1.584869e+01
9.724610e-02  0.   77.000000  25.400000 0.000000e+00 1.517614e+02 1.583136e+01
1.880386e-02  0.   155.900000  5.900000 1.110000e-01 1.517623e+02 1.602678e+01
7.613610e-02  0.   27.600000  2.500000 0.000000e+00 1.517624e+02 1.588394e+01
3.048365e-04  0.   215.600000  3.800000 9.910000e-01 1.517625e+02 1.607361e+01
1.045582e-01  0.   -105.100000  3.200000 0.000000e+00 1.517626e+02 1.581314e+01
1.065871e-01  0.   53.100000  2.400000 0.000000e+00 1.517631e+02 1.580808e+01
5.575470e-03  0.   191.700000  4.400000 9.630000e-01 1.517631e+02 1.605972e+01
5.575470e-03  0.   204.000000  9.000000 0.000000e+00 1.517631e+02 1.605972e+01
5.575470e-03  0.   207.100000  5.200000 0.000000e+00 1.517631e+02 1.605972e+01
1.233190e-02  0.   207.700000  3.300000 9.840000e-01 1.517636e+02 1.604289e+01
1.233190e-02  0.   199.900000  3.500000 0.000000e+00 1.517636e+02 1.604289e+01
1.233190e-02  0.   206.000000  2.700000 0.000000e+00 1.517636e+02 1.604289e+01
1.233190e-02  0.   199.600000  3.500000 0.000000e+00 1.517636e+02 1.604289e+01
1.833199e-02  0.   210.100000  21.100000 9.850000e-01 1.517638e+02 1.602794e+01
1.833199e-02  0.   213.200000  13.600000 0.000000e+00 1.517638e+02 1.602794e+01
3.644126e-02  0.   62.300000  2.200000 0.000000e+00 1.517643e+02 1.616439e+01
1.531769e-02  0.   24.400000  2.200000 0.000000e+00 1.517646e+02 1.611175e+01
6.277994e-02  0.   16.500000  2.400000 0.000000e+00 1.517650e+02 1.623000e+01
6.963811e-02  0.   -38.900000  2.200000 0.000000e+00 1.517651e+02 1.624708e+01
5.181228e-02  0.   113.300000  3.000000 0.000000e+00 1.517679e+02 1.594461e+01
4.257883e-03  0.   227.200000  4.400000 4.880000e-01 1.517681e+02 1.608317e+01
4.257883e-03  0.   233.500000  3.300000 0.000000e+00 1.517681e+02 1.608317e+01
1.955026e-02  0.   295.800000  3.900000 0.000000e+00 1.517691e+02 1.602522e+01
2.548234e-02  0.   296.900000  3.400000 0.000000e+00 1.517693e+02 1.613683e+01
2.548234e-02  0.   297.200000  4.100000 0.000000e+00 1.517693e+02 1.613683e+01
3.593860e-02  0.   -41.900000  2.300000 0.000000e+00 1.517707e+02 1.598436e+01
3.743674e-02  0.   28.900000  2.200000 0.000000e+00 1.517720e+02 1.598072e+01
7.862345e-03  0.   23.700000  7.000000 0.000000e+00 1.517730e+02 1.609083e+01
7.862345e-03  0.   23.400000  3.000000 0.000000e+00 1.517730e+02 1.609083e+01
5.245405e-02  0.   -29.300000  2.200000 0.000000e+00 1.517731e+02 1.594328e+01
3.870782e-03  0.   203.400000  2.500000 0.000000e+00 1.517733e+02 1.607278e+01
3.870782e-03  0.   209.400000  3.500000 0.000000e+00 1.517733e+02 1.607278e+01
3.870782e-03  0.   199.200000  2.300000 0.000000e+00 1.517733e+02 1.607278e+01
3.870782e-03  0.   212.500000  2.600000 0.000000e+00 1.517733e+02 1.607278e+01
7.792461e-02  0.   91.500000  2.200000 0.000000e+00 1.517754e+02 1.587983e+01
3.223436e-02  0.   -8.300000  4.200000 0.000000e+00 1.517757e+02 1.599419e+01
4.185170e-02  0.   198.400000  8.100000 9.280000e-01 1.517762e+02 1.597008e+01
6.087712e-02  0.   -28.800000  2.200000 0.000000e+00 1.517777e+02 1.592258e+01
6.087712e-02  0.   -27.500000  2.200000 0.000000e+00 1.517777e+02 1.592258e+01
6.100642e-03  0.   215.100000  6.800000 9.850000e-01 1.517781e+02 1.607900e+01
6.100642e-03  0.   207.000000  6.700000 0.000000e+00 1.517781e+02 1.607900e+01
5.024121e-02  0.   -47.200000  2.800000 0.000000e+00 1.517793e+02 1.619783e+01
7.669614e-02  0.   103.300000  2.200000 0.000000e+00 1.517811e+02 1.626392e+01
6.714278e-02  0.   -17.500000  2.700000 0.000000e+00 1.517817e+02 1.590728e+01
6.714278e-02  0.   -24.600000  2.500000 0.000000e+00 1.517817e+02 1.590728e+01
1.341657e-02  0.   -34.300000  2.200000 0.000000e+00 1.517819e+02 1.604533e+01
4.339662e-02  0.   -53.300000  5.500000 0.000000e+00 1.517822e+02 1.596703e+01
1.055282e-02  0.   35.100000  2.200000 0.000000e+00 1.517822e+02 1.609264e+01
2.102513e-02  0.   247.700000  2.800000 6.800000e-02 1.517825e+02 1.612264e+01
2.102513e-02  0.   245.600000  2.600000 0.000000e+00 1.517825e+02 1.612264e+01
2.102513e-02  0.   251.000000  2.400000 0.000000e+00 1.517825e+02 1.612264e+01
3.499654e-02  0.   -20.800000  2.200000 0.000000e+00 1.517847e+02 1.615833e+01
5.181709e-02  0.   286.300000  5.400000 0.000000e+00 1.517849e+02 1.594619e+01
1.294289e-02  0.   -29.700000  9.800000 0.000000e+00 1.517854e+02 1.609789e+01
8.928494e-03  0.   208.700000  3.500000 9.930000e-01 1.517855e+02 1.606708e+01
7.205588e-02  0.   91.100000  2.200000 0.000000e+00 1.517856e+02 1.589539e+01
7.205588e-02  0.   90.800000  2.200000 0.000000e+00 1.517856e+02 1.589539e+01
6.330667e-02  0.   -53.200000  5.400000 0.000000e+00 1.517864e+02 1.591747e+01
7.433548e-02  0.   63.000000  2.200000 0.000000e+00 1.517865e+02 1.588978e+01
7.433548e-02  0.   59.200000  2.200000 0.000000e+00 1.517865e+02 1.588978e+01
9.476862e-03  0.   206.000000  23.100000 9.820000e-01 1.517872e+02 1.607933e+01
9.476862e-03  0.   213.900000  7.900000 0.000000e+00 1.517872e+02 1.607933e+01
9.524008e-03  0.   312.700000  6.400000 0.000000e+00 1.517878e+02 1.607683e+01
9.524008e-03  0.   305.000000  4.700000 0.000000e+00 1.517878e+02 1.607683e+01
2.910662e-02  0.   53.900000  2.200000 0.000000e+00 1.517885e+02 1.614197e+01
1.209416e-02  0.   -0.500000  3.600000 0.000000e+00 1.517885e+02 1.609153e+01
5.724484e-02  0.   -31.400000  2.700000 0.000000e+00 1.517891e+02 1.593317e+01
5.373742e-02  0.   48.300000  2.800000 0.000000e+00 1.517896e+02 1.594214e+01
5.493648e-02  0.   55.400000  2.400000 0.000000e+00 1.517904e+02 1.620797e+01
7.574272e-02  0.   303.400000  2.200000 0.000000e+00 1.517906e+02 1.588675e+01
7.574272e-02  0.   298.600000  2.200000 0.000000e+00 1.517906e+02 1.588675e+01
3.697938e-02  0.   -26.400000  25.300000 0.000000e+00 1.517911e+02 1.598545e+01
1.163790e-02  0.   219.500000  5.000000 9.610000e-01 1.517914e+02 1.608422e+01
1.726518e-02  0.   208.000000  2.200000 9.840000e-01 1.517920e+02 1.610664e+01
1.726518e-02  0.   205.600000  2.200000 0.000000e+00 1.517920e+02 1.610664e+01
1.726518e-02  0.   208.100000  6.200000 0.000000e+00 1.517920e+02 1.610664e+01
1.726518e-02  0.   205.800000  2.200000 0.000000e+00 1.517920e+02 1.610664e+01
1.182051e-02  0.   198.900000  9.600000 9.400000e-01 1.517928e+02 1.606553e+01
5.617967e-02  0.   48.300000  4.200000 0.000000e+00 1.517928e+02 1.621067e+01
8.674838e-02  0.   51.800000  2.600000 0.000000e+00 1.517932e+02 1.585942e+01
6.218712e-02  0.   2.600000  2.400000 0.000000e+00 1.517936e+02 1.592144e+01
6.218712e-02  0.   6.900000  17.100000 0.000000e+00 1.517936e+02 1.592144e+01
4.704409e-02  0.   216.900000  4.500000 9.030000e-01 1.517957e+02 1.596061e+01
1.356990e-02  0.   50.100000  2.200000 0.000000e+00 1.517957e+02 1.608686e+01
5.110704e-02  0.   164.000000  2.300000 2.000000e-02 1.517963e+02 1.619692e+01
7.763465e-02  0.   -11.900000  2.900000 0.000000e+00 1.517982e+02 1.626408e+01
2.040227e-02  0.   -33.600000  3.500000 0.000000e+00 1.517985e+02 1.611161e+01
1.965925e-02  0.   247.100000  15.900000 7.010000e-01 1.517992e+02 1.610844e+01
2.740770e-02  0.   -21.000000  3.400000 0.000000e+00 1.518002e+02 1.613197e+01
4.486596e-02  0.   -38.100000  3.400000 0.000000e+00 1.518008e+02 1.617944e+01
6.307142e-02  0.   37.900000  2.200000 0.000000e+00 1.518033e+02 1.592125e+01
6.307142e-02  0.   37.600000  2.200000 0.000000e+00 1.518033e+02 1.592125e+01
2.646663e-02  0.   117.800000  2.200000 0.000000e+00 1.518037e+02 1.602031e+01
2.646663e-02  0.   128.100000  2.200000 0.000000e+00 1.518037e+02 1.602031e+01
4.835540e-02  0.   307.900000  2.400000 0.000000e+00 1.518040e+02 1.595967e+01
4.835540e-02  0.   302.400000  2.300000 0.000000e+00 1.518040e+02 1.595967e+01
2.186906e-02  0.   209.300000  4.800000 9.810000e-01 1.518051e+02 1.611047e+01
2.186906e-02  0.   229.700000  7.600000 0.000000e+00 1.518051e+02 1.611047e+01
2.186906e-02  0.   208.700000  15.400000 0.000000e+00 1.518051e+02 1.611047e+01
1.700132e-02  0.   293.400000  4.800000 0.000000e+00 1.518070e+02 1.607911e+01
1.700132e-02  0.   298.700000  4.700000 0.000000e+00 1.518070e+02 1.607911e+01
1.700132e-02  0.   300.200000  3.600000 0.000000e+00 1.518070e+02 1.607911e+01
2.084342e-02  0.   -170.800000  2.200000 0.000000e+00 1.518083e+02 1.610247e+01
2.084342e-02  0.   -175.400000  2.200000 0.000000e+00 1.518083e+02 1.610247e+01
2.084342e-02  0.   -174.100000  2.200000 0.000000e+00 1.518083e+02 1.610247e+01
2.482575e-02  0.   207.900000  2.300000 9.890000e-01 1.518108e+02 1.603181e+01
2.482575e-02  0.   207.800000  2.300000 0.000000e+00 1.518108e+02 1.603181e+01
2.482575e-02  0.   201.800000  2.200000 0.000000e+00 1.518108e+02 1.603181e+01
2.053500e-02  0.   -117.100000  2.500000 0.000000e+00 1.518109e+02 1.605070e+01
2.053500e-02  0.   -112.000000  21.000000 0.000000e+00 1.518109e+02 1.605070e+01
3.778842e-02  0.   56.300000  2.400000 0.000000e+00 1.518109e+02 1.599133e+01
5.172017e-02  0.   -6.200000  2.200000 0.000000e+00 1.518111e+02 1.595322e+01
5.172017e-02  0.   1.900000  2.200000 0.000000e+00 1.518111e+02 1.595322e+01
2.307237e-02  0.   205.700000  5.400000 8.850000e-01 1.518116e+02 1.610753e+01
4.695462e-02  0.   77.100000  3.000000 0.000000e+00 1.518118e+02 1.596633e+01
1.905027e-02  0.   207.700000  3.700000 9.940000e-01 1.518122e+02 1.608022e+01
1.905027e-02  0.   205.800000  5.700000 0.000000e+00 1.518122e+02 1.608022e+01
2.638773e-02  0.   210.700000  10.900000 9.820000e-01 1.518129e+02 1.611894e+01
2.638773e-02  0.   195.400000  11.800000 0.000000e+00 1.518129e+02 1.611894e+01
2.638773e-02  0.   206.800000  6.500000 0.000000e+00 1.518129e+02 1.611894e+01
2.890816e-02  0.   17.300000  2.200000 0.000000e+00 1.518143e+02 1.612639e+01
2.890816e-02  0.   13.000000  2.600000 0.000000e+00 1.518143e+02 1.612639e+01
2.890816e-02  0.   20.200000  2.400000 0.000000e+00 1.518143e+02 1.612639e+01
2.203702e-02  0.   282.000000  2.800000 0.000000e+00 1.518146e+02 1.609781e+01
2.203702e-02  0.   284.200000  3.200000 0.000000e+00 1.518146e+02 1.609781e+01
7.557498e-02  0.   266.800000  3.100000 1.200000e-02 1.518147e+02 1.625530e+01
4.550676e-02  0.   215.600000  3.900000 3.110000e-01 1.518150e+02 1.597172e+01
2.224562e-02  0.   205.100000  4.300000 9.910000e-01 1.518155e+02 1.605000e+01
2.224562e-02  0.   206.900000  9.700000 0.000000e+00 1.518155e+02 1.605000e+01
2.224562e-02  0.   214.500000  5.400000 0.000000e+00 1.518155e+02 1.605000e+01
7.434448e-02  0.   -36.200000  2.900000 0.000000e+00 1.518158e+02 1.589542e+01
7.434448e-02  0.   -33.500000  2.500000 0.000000e+00 1.518158e+02 1.589542e+01
7.434448e-02  0.   -33.400000  2.800000 0.000000e+00 1.518158e+02 1.589542e+01
2.209446e-02  0.   205.100000  7.100000 9.930000e-01 1.518158e+02 1.609561e+01
2.209446e-02  0.   209.600000  3.100000 0.000000e+00 1.518158e+02 1.609561e+01
2.209446e-02  0.   214.200000  6.100000 0.000000e+00 1.518158e+02 1.609561e+01
5.829664e-02  0.   76.800000  3.200000 0.000000e+00 1.518163e+02 1.593761e+01
5.829664e-02  0.   81.400000  4.100000 0.000000e+00 1.518163e+02 1.593761e+01
5.829664e-02  0.   72.700000  5.300000 0.000000e+00 1.518163e+02 1.593761e+01
3.388309e-02  0.   63.700000  5.200000 0.000000e+00 1.518174e+02 1.600711e+01
2.157361e-02  0.   213.000000  14.600000 8.280000e-01 1.518177e+02 1.606120e+01
2.157361e-02  0.   188.800000  4.400000 0.000000e+00 1.518177e+02 1.606120e+01
2.157361e-02  0.   198.900000  4.400000 0.000000e+00 1.518177e+02 1.606120e+01
2.157361e-02  0.   204.600000  3.900000 0.000000e+00 1.518177e+02 1.606120e+01
3.753209e-02  0.   69.700000  2.200000 0.000000e+00 1.518194e+02 1.615003e+01
2.302056e-02  0.   266.300000  4.400000 3.000000e-02 1.518215e+02 1.608664e+01
2.299054e-02  0.   295.900000  2.400000 0.000000e+00 1.518223e+02 1.606545e+01
2.299054e-02  0.   295.500000  2.700000 0.000000e+00 1.518223e+02 1.606545e+01
2.299054e-02  0.   300.800000  6.700000 0.000000e+00 1.518223e+02 1.606545e+01
2.445073e-02  0.   52.700000  4.200000 0.000000e+00 1.518235e+02 1.605436e+01
2.445073e-02  0.   49.300000  10.500000 0.000000e+00 1.518235e+02 1.605436e+01
5.785348e-02  0.   -153.100000  31.000000 0.000000e+00 1.518244e+02 1.620525e+01
5.403481e-02  0.   27.800000  6.800000 0.000000e+00 1.518251e+02 1.619445e+01
2.407999e-02  0.   -0.700000  2.200000 0.000000e+00 1.518254e+02 1.606739e+01
2.407999e-02  0.   -5.800000  2.200000 0.000000e+00 1.518254e+02 1.606739e+01
3.693626e-02  0.   24.200000  2.300000 0.000000e+00 1.518255e+02 1.614358e+01
3.586935e-02  0.   75.800000  3.200000 0.000000e+00 1.518266e+02 1.613911e+01
7.104166e-02  0.   49.300000  2.400000 0.000000e+00 1.518272e+02 1.590764e+01
5.854338e-02  0.   109.100000  3.300000 0.000000e+00 1.518290e+02 1.594214e+01
5.854338e-02  0.   98.700000  4.100000 0.000000e+00 1.518290e+02 1.594214e+01
3.592235e-02  0.   22.900000  2.200000 0.000000e+00 1.518314e+02 1.613469e+01
6.246488e-02  0.   67.000000  2.200000 0.000000e+00 1.518315e+02 1.593247e+01
7.787739e-02  0.   46.900000  2.200000 0.000000e+00 1.518315e+02 1.625622e+01
3.471949e-02  0.   33.100000  2.900000 0.000000e+00 1.518325e+02 1.601822e+01
5.453681e-02  0.   -13.100000  2.600000 0.000000e+00 1.518331e+02 1.595544e+01
6.545013e-02  0.   -15.600000  2.300000 0.000000e+00 1.518331e+02 1.592500e+01
6.545013e-02  0.   -19.000000  2.500000 0.000000e+00 1.518331e+02 1.592500e+01
3.283197e-02  0.   312.700000  2.200000 0.000000e+00 1.518333e+02 1.602708e+01
4.727835e-02  0.   21.800000  2.300000 0.000000e+00 1.518350e+02 1.616917e+01
3.193722e-02  0.   26.300000  2.300000 0.000000e+00 1.518353e+02 1.603425e+01
3.193722e-02  0.   23.600000  2.200000 0.000000e+00 1.518353e+02 1.603425e+01
2.889359e-02  0.   -34.400000  2.200000 0.000000e+00 1.518355e+02 1.605447e+01
2.889359e-02  0.   -32.300000  2.200000 0.000000e+00 1.518355e+02 1.605447e+01
2.889359e-02  0.   -31.800000  2.200000 0.000000e+00 1.518355e+02 1.605447e+01
4.375743e-02  0.   7.500000  2.200000 0.000000e+00 1.518368e+02 1.599056e+01
4.375743e-02  0.   7.300000  4.100000 0.000000e+00 1.518368e+02 1.599056e+01
2.933453e-02  0.   19.400000  2.200000 0.000000e+00 1.518380e+02 1.605958e+01
2.933453e-02  0.   16.700000  2.200000 0.000000e+00 1.518380e+02 1.605958e+01
5.436720e-02  0.   281.600000  2.400000 0.000000e+00 1.518382e+02 1.618839e+01
8.290990e-02  0.   201.400000  6.500000 2.000000e-01 1.518395e+02 1.626675e+01
7.331483e-02  0.   307.200000  5.500000 0.000000e+00 1.518407e+02 1.590681e+01
7.331483e-02  0.   305.500000  3.200000 0.000000e+00 1.518407e+02 1.590681e+01
6.948309e-02  0.   26.400000  5.500000 0.000000e+00 1.518427e+02 1.591822e+01
4.113613e-02  0.   77.100000  2.200000 0.000000e+00 1.518431e+02 1.600558e+01
7.902122e-02  0.   -11.800000  2.500000 0.000000e+00 1.518439e+02 1.589264e+01
4.278327e-02  0.   -1.900000  2.200000 0.000000e+00 1.518443e+02 1.614647e+01
6.727431e-02  0.   -8.400000  3.000000 0.000000e+00 1.518471e+02 1.622064e+01
3.243738e-02  0.   118.900000  3.600000 0.000000e+00 1.518473e+02 1.607741e+01
7.474102e-02  0.   206.700000  6.700000 8.590000e-01 1.518485e+02 1.624089e+01
6.369487e-02  0.   217.200000  10.000000 8.430000e-01 1.518501e+02 1.593864e+01
3.518093e-02  0.   65.500000  2.800000 0.000000e+00 1.518502e+02 1.610019e+01
3.356555e-02  0.   197.600000  7.600000 8.850000e-01 1.518503e+02 1.607497e+01
3.378495e-02  0.   87.300000  2.600000 0.000000e+00 1.518509e+02 1.607356e+01
3.531732e-02  0.   8.300000  2.200000 0.000000e+00 1.518547e+02 1.607928e+01
6.803689e-02  0.   10.500000  6.100000 0.000000e+00 1.518552e+02 1.592895e+01
6.803689e-02  0.   25.600000  3.800000 0.000000e+00 1.518552e+02 1.592895e+01
6.501343e-02  0.   5.600000  2.500000 0.000000e+00 1.518555e+02 1.593800e+01
3.711036e-02  0.   -1.300000  2.200000 0.000000e+00 1.518591e+02 1.606508e+01
3.867170e-02  0.   15.300000  3.600000 0.000000e+00 1.518615e+02 1.605411e+01
8.501662e-02  0.   42.900000  2.800000 0.000000e+00 1.518625e+02 1.626278e+01
4.353342e-02  0.   219.200000  8.800000 9.360000e-01 1.518648e+02 1.602622e+01
8.739506e-02  0.   10.200000  2.300000 0.000000e+00 1.518660e+02 1.587953e+01
4.601596e-02  0.   217.400000  14.300000 7.630000e-01 1.518683e+02 1.612811e+01
7.055096e-02  0.   51.100000  2.200000 0.000000e+00 1.518699e+02 1.621650e+01
4.135940e-02  0.   10.800000  3.600000 0.000000e+00 1.518704e+02 1.607964e+01
6.832215e-02  0.   14.000000  3.500000 0.000000e+00 1.518732e+02 1.594011e+01
7.011341e-02  0.   115.900000  2.200000 0.000000e+00 1.518732e+02 1.621278e+01
6.169820e-02  0.   309.600000  2.200000 0.000000e+00 1.518732e+02 1.618531e+01
8.604573e-02  0.   10.800000  3.300000 0.000000e+00 1.518754e+02 1.588828e+01
8.405775e-02  0.   -29.800000  2.200000 0.000000e+00 1.519795e+02 1.610053e+01
9.074812e-02  0.   96.500000  2.900000 0.000000e+00 1.519865e+02 1.614531e+01
8.678656e-02  0.   -1.500000  2.500000 0.000000e+00 1.519868e+02 1.609889e+01
