# Matter power spectrum P(k) at redshift z=1.2
# for k=1.03955e-05 to 5215.48 h/Mpc,
# number of wavenumbers equal to 149
#    1:k (h/Mpc)              2:P (Mpc/h)^3        
       1.039554593366e-05       1.526746266673e+01 
       1.308721694535e-05       1.907814926889e+01 
       1.647582998217e-05       2.383994763990e+01 
       2.074184104495e-05       2.979021975396e+01 
       2.611243077888e-05       3.722556315909e+01 
       3.287360267125e-05       4.651654135193e+01 
       4.138541378007e-05       5.812611183584e+01 
       5.210114908534e-05       7.263259238281e+01 
       6.559146056721e-05       9.075825354972e+01 
       8.257475650476e-05       1.134048740562e+02 
       1.039554593366e-04       1.416977900652e+02 
       1.308721694535e-04       1.770402216479e+02 
       1.647582998217e-04       2.211797379059e+02 
       2.074184104495e-04       2.762885812827e+02 
       2.611243077888e-04       3.450588269053e+02 
       3.287360267125e-04       4.308115985773e+02 
       4.138541378007e-04       5.376161075717e+02 
       5.210114908534e-04       6.704087693226e+02 
       6.559146056721e-04       8.350957041890e+02 
       8.257475650476e-04       1.038616086579e+03 
       1.039554593366e-03       1.288938671165e+03 
       1.308721694535e-03       1.594937537470e+03 
       1.647582998217e-03       1.965952462231e+03 
       2.074184104495e-03       2.411042668115e+03 
       2.611243077888e-03       2.937491681848e+03 
       3.287360267125e-03       3.548791833025e+03 
       4.138541378007e-03       4.241743990726e+03 
       5.210114908534e-03       5.002598311868e+03 
       6.559146056721e-03       5.802685414232e+03 
       8.257475650476e-03       6.592432408945e+03 
       1.039554593366e-02       7.297673410484e+03 
       1.308721694535e-02       7.815743773388e+03 
       1.647582998214e-02       8.020464977586e+03 
       2.074184088572e-02       7.787498293326e+03 
       2.611230840193e-02       7.058660040676e+03 
       3.285653182045e-02       5.944839031269e+03 
       4.081332843164e-02       4.828692504859e+03 
       4.754021716107e-02       4.188651367788e+03 
       5.241547480738e-02       3.875069561059e+03 
       5.643282856264e-02       3.680003478943e+03 
       6.001833682243e-02       3.532855364606e+03 
       6.336166044928e-02       3.404466919745e+03 
       6.656307139837e-02       3.279751209118e+03 
       6.968264494082e-02       3.150852405248e+03 
       7.275981836318e-02       3.014011273171e+03 
       7.582237227446e-02       2.868299621981e+03 
       7.889102481454e-02       2.714883664386e+03 
       8.198198315273e-02       2.556618961333e+03 
       8.510845469814e-02       2.397395005023e+03 
       8.828158949124e-02       2.241627496471e+03 
       9.151109307600e-02       2.093803313293e+03 
       9.480563909718e-02       1.957934173025e+03 
       9.817315512484e-02       1.837016533929e+03 
       1.016210253698e-01       1.733017296815e+03 
       1.051562372192e-01       1.646240159551e+03 
       1.087854887544e-01       1.575676921288e+03 
       1.125152685187e-01       1.518726053397e+03 
       1.163519151387e-01       1.471577583528e+03 
       1.203016620718e-01       1.429463686088e+03 
       1.243706712418e-01       1.387169022416e+03 
       1.285650583271e-01       1.339943967228e+03 
       1.328909118087e-01       1.284360083575e+03 
       1.373543074419e-01       1.219160251693e+03 
       1.419613195248e-01       1.145658242276e+03 
       1.467180301457e-01       1.067513765541e+03 
       1.516305374617e-01       9.899016154807e+02 
       1.567049639876e-01       9.182034349900e+02 
       1.619474658202e-01       8.566744090366e+02 
       1.673642436914e-01       8.073011246016e+02 
       1.729615567289e-01       7.695096348368e+02 
       1.787457397832e-01       7.400143844340e+02 
       1.847232251771e-01       7.140643891920e+02 
       1.909005697246e-01       6.864100200799e+02 
       1.972844878737e-01       6.528958194020e+02 
       2.038818918359e-01       6.128568155207e+02 
       2.106999396018e-01       5.691459655622e+02 
       2.177460917977e-01       5.265175740739e+02 
       2.250281784350e-01       4.891074990865e+02 
       2.325544767517e-01       4.591327911798e+02 
       2.403338015606e-01       4.360059288362e+02 
       2.483756098215e-01       4.164725094142e+02 
       2.566901215724e-01       3.964165006225e+02 
       2.652884599139e-01       3.733987668030e+02 
       2.741828134909e-01       3.477740531599e+02 
       2.833866259052e-01       3.223056562811e+02 
       2.929148178032e-01       3.001422013181e+02 
       3.027840491167e-01       2.821893588869e+02 
       3.130130312448e-01       2.668836884314e+02 
       3.236229020692e-01       2.517469907355e+02 
       3.346376808976e-01       2.353417602628e+02 
       3.460848262041e-01       2.185676158391e+02 
       3.579959270564e-01       2.031985214119e+02 
       3.704075704423e-01       1.900698827274e+02 
       3.833624429267e-01       1.781651027592e+02 
       3.969107487182e-01       1.662148829397e+02 
       4.111120613410e-01       1.541423067659e+02 
       4.260377793153e-01       1.428616956661e+02 
       4.417744386818e-01       1.326880325653e+02 
       4.584282660567e-01       1.230734500087e+02 
       4.761315693280e-01       1.135298703678e+02 
       4.950519218633e-01       1.044225821987e+02 
       5.154057199787e-01       9.597067632868e+01 
       5.374788205876e-01       8.774925043177e+01 
       5.616590926020e-01       7.977736540718e+01 
       5.884899305890e-01       7.215690098610e+01 
       6.187626138371e-01       6.467593828872e+01 
       6.536851165952e-01       5.735816139552e+01 
       6.952121405854e-01       5.006491717884e+01 
       7.467418170057e-01       4.271101162760e+01 
       8.147051579372e-01       3.513299308483e+01 
       9.123223049594e-01       2.718565694797e+01 
       1.066600871110e+00       1.899107928763e+01 
       1.312333712991e+00       1.170562335163e+01 
       1.649322590380e+00       6.801425301847e+00 
       2.076320274967e+00       3.900892244355e+00 
       2.613932154499e+00       2.218735591061e+00 
       3.290745613896e+00       1.252660851023e+00 
       4.142803277084e+00       7.024274165314e-01 
       5.215480321585e+00       3.914904400581e-01 
       6.565900711556e+00       2.169555004028e-01 
       8.265979257096e+00       1.196137630782e-01 
       1.040625134012e+01       6.563434243852e-02 
       1.310069425360e+01       3.585677834292e-02 
       1.649279690800e+01       1.950944456593e-02 
       2.076320113904e+01       1.057403866810e-02 
       2.613932154413e+01       5.710415110932e-03 
       3.290745613896e+01       3.073091205309e-03 
       4.142803277084e+01       1.648057755169e-03 
       5.215480321585e+01       8.806949290374e-04 
       6.565900711556e+01       4.688096241548e-04 
       8.265979257096e+01       2.484576784811e-04 
       1.040625134012e+02       1.309704419921e-04 
       1.310069425360e+02       6.855710266020e-05 
       1.649279690800e+02       3.555044261859e-05 
       2.076320113904e+02       1.819615851687e-05 
       2.613932154413e+02       9.149525076881e-06 
       3.290745613896e+02       4.493394287421e-06 
       4.142803277084e+02       2.144593742176e-06 
       5.215480321585e+02       9.936855638054e-07 
       6.565900711556e+02       4.505444645461e-07 
       8.265979257096e+02       2.037615514024e-07 
       1.040625134012e+03       9.452792951609e-08 
       1.310069425360e+03       4.607638906571e-08 
       1.649279690800e+03       2.349372681384e-08 
       2.076320113904e+03       1.185391494327e-08 
       2.613932154413e+03       5.742665245372e-09 
       3.290745613896e+03       2.957151438897e-09 
       4.142803277084e+03       1.515464769194e-09 
       5.215480321585e+03       7.826684781293e-10 
