# Matter power spectrum P(k) at redshift z=1.5
# for k=9.56334e-06 to 6040.28 h/Mpc,
# number of wavenumbers equal to 150
#    1:k (h/Mpc)              2:P (Mpc/h)^3        
       9.563336945583e-06       1.246542934371e+01 
       1.203952790234e-05       1.569302279858e+01 
       1.515686762227e-05       1.975630066298e+01 
       1.908136581287e-05       2.487161412595e+01 
       2.402201631356e-05       3.131132092186e+01 
       3.024192677968e-05       3.941824382885e+01 
       3.807233012456e-05       4.962388378031e+01 
       4.793022388002e-05       6.247128364095e+01 
       6.034057683555e-05       7.864372349078e+01 
       7.596428554059e-05       9.900067314438e+01 
       9.563336945583e-05       1.246226875499e+02 
       1.203952790234e-04       1.568672161316e+02 
       1.515686762227e-04       1.974374699952e+02 
       1.908136581287e-04       2.484663935236e+02 
       2.402201631356e-04       3.126171397134e+02 
       3.024192677968e-04       3.931996867643e+02 
       3.807233012456e-04       4.942996636815e+02 
       4.793022388002e-04       6.209094277883e+02 
       6.034057683555e-04       7.790434525381e+02 
       7.596428554059e-04       9.758128906345e+02 
       9.563336945583e-04       1.219429592201e+03 
       1.203952790234e-03       1.519081828676e+03 
       1.515686762227e-03       1.884527427180e+03 
       1.908136581287e-03       2.325304089341e+03 
       2.402201631356e-03       2.849161853254e+03 
       3.024192677968e-03       3.459976899533e+03 
       3.807233012456e-03       4.154668505654e+03 
       4.793022388002e-03       4.919143838093e+03 
       6.034057683555e-03       5.723479914416e+03 
       7.596428554059e-03       6.516424369289e+03 
       9.563336945583e-03       7.219647652936e+03 
       1.203952790234e-02       7.725087591838e+03 
       1.515686762224e-02       7.899692445457e+03 
       1.908136566822e-02       7.613551950405e+03 
       2.402190478566e-02       6.811265914303e+03 
       3.022632846438e-02       5.624487467045e+03 
       3.754835943463e-02       4.472369086320e+03 
       4.374285975587e-02       3.840465679714e+03 
       4.823153225514e-02       3.547733768959e+03 
       5.192964587323e-02       3.375331874117e+03 
       5.522990870319e-02       3.250193451624e+03 
       5.830707975075e-02       3.141951889227e+03 
       6.125352927169e-02       3.035191439158e+03 
       6.412458849805e-02       2.921623522603e+03 
       6.695657551535e-02       2.797273060584e+03 
       6.977507095095e-02       2.661193853830e+03 
       7.259915056344e-02       2.514849025292e+03 
       7.544373561855e-02       2.361428017162e+03 
       7.832098484222e-02       2.205397203998e+03 
       8.124116237480e-02       2.051837464428e+03 
       8.421320219730e-02       1.905860885056e+03 
       8.724508809363e-02       1.771995583376e+03 
       9.034411685579e-02       1.653897960616e+03 
       9.351708495024e-02       1.553696943256e+03 
       9.677042344821e-02       1.472046405024e+03 
       1.001102970265e-01       1.407938165295e+03 
       1.035426774148e-01       1.358872995138e+03 
       1.070733982929e-01       1.320779422477e+03 
       1.107081964921e-01       1.288504722034e+03 
       1.144527429651e-01       1.256329721246e+03 
       1.183126660704e-01       1.218791689692e+03 
       1.222935691108e-01       1.171777443667e+03 
       1.264010436574e-01       1.113484924006e+03 
       1.306406799251e-01       1.045001245573e+03 
       1.350180752838e-01       9.701838018692e+02 
       1.395388418795e-01       8.947305288055e+02 
       1.442086142614e-01       8.247236724292e+02 
       1.490330578683e-01       7.651736669150e+02 
       1.540178791982e-01       7.186648134850e+02 
       1.591688384667e-01       6.848793316592e+02 
       1.644917655477e-01       6.605941084567e+02 
       1.699925799811e-01       6.408217775248e+02 
       1.756773158304e-01       6.193070695459e+02 
       1.815521521735e-01       5.911715589718e+02 
       1.876234500225e-01       5.551835511051e+02 
       1.938977965003e-01       5.141435394740e+02 
       2.003820571506e-01       4.731469258826e+02 
       2.070834373521e-01       4.371489791779e+02 
       2.140095539382e-01       4.091347905841e+02 
       2.211685183236e-01       3.888687217962e+02 
       2.285690327199e-01       3.729309603835e+02 
       2.362205014013e-01       3.566300047861e+02 
       2.441331595008e-01       3.367755516738e+02 
       2.523182225053e-01       3.132762629916e+02 
       2.607880605269e-01       2.892180661848e+02 
       2.695564026352e-01       2.683590209615e+02 
       2.786385781295e-01       2.520976566520e+02 
       2.880518037547e-01       2.390248817207e+02 
       2.978155287199e-01       2.262164413515e+02 
       3.079518532451e-01       2.117154468226e+02 
       3.184860416702e-01       1.962785090355e+02 
       3.294471585420e-01       1.820236504371e+02 
       3.408688665046e-01       1.702195877869e+02 
       3.527904397381e-01       1.598667138281e+02 
       3.652580684392e-01       1.493887322026e+02 
       3.783265621326e-01       1.384627873911e+02 
       3.920616085334e-01       1.281564886124e+02 
       4.065428204870e-01       1.190718649091e+02 
       4.218679238386e-01       1.105997338630e+02 
       4.381586353290e-01       1.020430802685e+02 
       4.555691094867e-01       9.380498979451e+01 
       4.742984070828e-01       8.626997669961e+01 
       4.946094739814e-01       7.893039411442e+01 
       5.168590741962e-01       7.175899150633e+01 
       5.415469953070e-01       6.494804196029e+01 
       5.694009643234e-01       5.824272349178e+01 
       6.015318371062e-01       5.168274962516e+01 
       6.397369640827e-01       4.514460937116e+01 
       6.871405112201e-01       3.854909939632e+01 
       7.496541109694e-01       3.174645596518e+01 
       8.394288805690e-01       2.460612726023e+01 
       9.812939861715e-01       1.723279609447e+01 
       1.207288850208e+00       1.065988359294e+01 
       1.517288611562e+00       6.219804804570e+00 
       1.910103234767e+00       3.583303605607e+00 
       2.404677312794e+00       2.047898024771e+00 
       3.027309376141e+00       1.162069307583e+00 
       3.811156702987e+00       6.550988165118e-01 
       4.797962021720e+00       3.670908660215e-01 
       6.040276313966e+00       2.045897386169e-01 
       7.604257345910e+00       1.134522999257e-01 
       9.573192810589e+00       6.262470190940e-02 
       1.205193570126e+01       3.441981862157e-02 
       1.517248811562e+01       1.884278343073e-02 
       1.910103084890e+01       1.027681840130e-02 
       2.404677312714e+01       5.585114551274e-03 
       3.027309376141e+01       3.024820975543e-03 
       3.811156702987e+01       1.632590601433e-03 
       4.797962021720e+01       8.780168518001e-04 
       6.040276313966e+01       4.703750819555e-04 
       7.604257345910e+01       2.508606086527e-04 
       9.573192810589e+01       1.330460343780e-04 
       1.205193570126e+02       7.004914100884e-05 
       1.517248811562e+02       3.651652049342e-05 
       1.910103084890e+02       1.877521752551e-05 
       2.404677312714e+02       9.471227896746e-06 
       3.027309376141e+02       4.658258726834e-06 
       3.811156702987e+02       2.221119688186e-06 
       4.797962021720e+02       1.025082757194e-06 
       6.040276313966e+02       4.612190541728e-07 
       7.604257345910e+02       2.058541012930e-07 
       9.573192810589e+02       9.342426818398e-08 
       1.205193570126e+03       4.434081483668e-08 
       1.517248811562e+03       2.243779620090e-08 
       1.910103084890e+03       1.173999573541e-08 
       2.404677312714e+03       5.879284764523e-09 
       3.027309376141e+03       2.868747531507e-09 
       3.811156702987e+03       1.539110755960e-09 
       4.797962021720e+03       7.683581666780e-10 
       6.040276313966e+03       4.116524806190e-10 
