# Matter power spectrum P(k) at redshift z=11.5
# for k=1.02819e-05 to 10292.4 h/Mpc,
# number of wavenumbers equal to 152
#    1:k (h/Mpc)              2:P (Mpc/h)^3        
       1.028186309556e-05       3.928612851340e-01 
       1.294409873158e-05       4.945826372858e-01 
       1.629565482596e-05       6.226418223628e-01 
       2.051501396223e-05       7.838579638201e-01 
       2.582687240037e-05       9.868154187276e-01 
       3.251410597199e-05       1.242320441706e+00 
       4.093283424990e-05       1.563975673745e+00 
       5.153138521396e-05       1.968902582965e+00 
       6.487417035081e-05       2.478649353646e+00 
       8.167174162370e-05       3.120330644020e+00 
       1.028186309556e-04       3.928056067228e+00 
       1.294409873158e-04       4.944715826870e+00 
       1.629565482596e-04       6.224203430333e+00 
       2.051501396223e-04       7.834163719200e+00 
       2.582687240037e-04       9.859353303265e+00 
       3.251410597199e-04       1.240567590541e+01 
       4.093283424990e-04       1.560488198491e+01 
       5.153138521396e-04       1.961975261241e+01 
       6.487417035081e-04       2.464924569128e+01 
       8.167174162370e-04       3.093246483335e+01 
       1.028186309556e-03       3.874934688359e+01 
       1.294409873158e-03       4.841481806977e+01 
       1.629565482596e-03       6.026181646889e+01 
       2.051501396223e-03       7.461409444972e+01 
       2.582687240037e-03       9.174710853437e+01 
       3.251410597199e-03       1.118358473024e+02 
       4.093283424990e-03       1.348668360545e+02 
       5.153138521396e-03       1.604903896255e+02 
       6.487417035081e-03       1.878618174929e+02 
       8.167174162370e-03       2.154619240198e+02 
       1.028186309556e-02       2.409053702745e+02 
       1.294409873158e-02       2.608192166259e+02 
       1.629565482590e-02       2.709754605693e+02 
       2.051501365311e-02       2.670808007076e+02 
       2.582667253972e-02       2.468868908015e+02 
       3.248988695204e-02       2.135906420291e+02 
       4.021880175384e-02       1.795450031544e+02 
       4.652144083979e-02       1.598194132058e+02 
       5.113531061808e-02       1.494267267510e+02 
       5.497442673502e-02       1.425132464980e+02 
       5.841854908973e-02       1.370350562287e+02 
       6.163969256634e-02       1.321133226693e+02 
       6.473002904072e-02       1.273024387732e+02 
       6.774531431751e-02       1.223675465068e+02 
       7.072241628961e-02       1.172011741699e+02 
       7.368745547833e-02       1.117845707598e+02 
       7.666000484630e-02       1.061649238318e+02 
       7.965543770801e-02       1.004375220503e+02 
       8.268632566147e-02       9.472901203873e+01 
       8.576331404303e-02       8.918091730961e+01 
       8.889569325251e-02       8.393258251224e+01 
       9.209178448803e-02       7.910565538802e+01 
       9.535920759703e-02       7.479063523485e+01 
       9.870507141333e-02       7.103618460485e+01 
       1.021361115577e-01       6.784377502409e+01 
       1.056587916662e-01       6.516442238148e+01 
       1.092793785549e-01       6.290173353344e+01 
       1.130039984285e-01       6.091970129890e+01 
       1.168386790778e-01       5.905651624960e+01 
       1.207893815985e-01       5.714598192549e+01 
       1.248620242410e-01       5.504529464364e+01 
       1.290625003803e-01       5.266439566724e+01 
       1.333966921901e-01       4.998857209356e+01 
       1.378704813260e-01       4.708584688547e+01 
       1.424897577513e-01       4.409340159191e+01 
       1.472604277150e-01       4.118504981850e+01 
       1.521884218237e-01       3.852897675876e+01 
       1.572797041003e-01       3.624530722009e+01 
       1.625402828938e-01       3.437425635024e+01 
       1.679762244856e-01       3.286628421149e+01 
       1.735936702284e-01       3.159299661669e+01 
       1.793988580408e-01       3.038512828505e+01 
       1.853981490815e-01       2.908747697143e+01 
       1.915980604284e-01       2.759401541496e+01 
       1.980053046017e-01       2.591677385522e+01 
       2.046268368053e-01       2.417547911806e+01 
       2.114699108172e-01       2.253188789293e+01 
       2.185421445592e-01       2.110317958322e+01 
       2.258515965236e-01       1.992636240703e+01 
       2.334068544475e-01       1.895256225416e+01 
       2.412171379337e-01       1.806454808881e+01 
       2.492924171242e-01       1.713774317113e+01 
       2.576435500978e-01       1.612137050962e+01 
       2.662824424022e-01       1.505782672757e+01 
       2.752222331166e-01       1.404261067849e+01 
       2.844775131425e-01       1.315939872032e+01 
       2.940645831437e-01       1.241175612379e+01 
       3.040017608552e-01       1.173022403995e+01 
       3.143097505674e-01       1.104419691135e+01 
       3.250120917842e-01       1.033062838956e+01 
       3.361357098084e-01       9.632412608518e+00 
       3.477115990261e-01       8.999892631467e+00 
       3.597756809812e-01       8.438272716392e+00 
       3.723698955839e-01       7.908290688630e+00 
       3.855436075238e-01       7.378764981066e+00 
       3.993554452615e-01       6.862113903088e+00 
       4.138757435632e-01       6.382562661798e+00 
       4.291898437481e-01       5.938053467594e+00 
       4.454026382203e-01       5.510864379087e+00 
       4.626449623634e-01       5.093763689492e+00 
       4.810828019284e-01       4.698207783681e+00 
       5.009309209595e-01       4.324158458378e+00 
       5.224736704039e-01       3.959794444524e+00 
       5.460979262521e-01       3.608505367511e+00 
       5.723474651910e-01       3.268815278554e+00 
       6.020172733138e-01       2.935356473723e+00 
       6.363269206526e-01       2.607372489341e+00 
       6.772618081761e-01       2.279258680936e+00 
       7.282988925093e-01       1.946316493358e+00 
       7.960727852782e-01       1.601115245491e+00 
       8.942998125020e-01       1.236676236902e+00 
       1.050618116200e+00       8.604492593047e-01 
       1.297349434593e+00       5.306433469622e-01 
       1.631255788595e+00       3.109046421869e-01 
       2.053595908975e+00       1.799614454965e-01 
       2.585323968624e+00       1.032907234823e-01 
       3.254730041774e+00       5.883528900828e-02 
       4.097462358120e+00       3.328244778099e-02 
       5.158399486507e+00       1.870951598809e-02 
       6.494040197750e+00       1.045727944545e-02 
       8.175512230160e+00       5.814255434793e-03 
       1.029236010098e+01       3.217197857661e-03 
       1.295731367846e+01       1.772267624742e-03 
       1.631229145840e+01       9.723016574807e-04 
       2.053595824158e+01       5.313830714079e-04 
       2.585323968587e+01       2.893724369281e-04 
       3.254730041774e+01       1.570492356819e-04 
       4.097462358120e+01       8.495663108718e-05 
       5.158399486507e+01       4.581053396455e-05 
       6.494040197750e+01       2.462169717430e-05 
       8.175512230160e+01       1.318760608310e-05 
       1.029236010098e+02       7.036268905219e-06 
       1.295731367846e+02       3.736635008718e-06 
       1.631229145840e+02       1.972914116336e-06 
       2.053595824158e+02       1.033848377555e-06 
       2.585323968587e+02       5.364083912936e-07 
       3.254730041774e+02       2.748047311481e-07 
       4.097462358120e+02       1.386971430402e-07 
       5.158399486507e+02       6.898881460081e-08 
       6.494040197750e+02       3.400083184834e-08 
       8.175512230160e+02       1.675892322578e-08 
       1.029236010098e+03       8.310067709858e-09 
       1.295731367846e+03       4.144745507417e-09 
       1.631229145840e+03       2.084728027833e-09 
       2.053595824158e+03       1.056561203553e-09 
       2.585323968587e+03       5.394248227544e-10 
       3.254730041774e+03       2.770573487143e-10 
       4.097462358120e+03       1.429796575000e-10 
       5.158399486507e+03       7.403918008857e-11 
       6.494040197750e+03       3.842827357235e-11 
       8.175512230160e+03       1.997330630796e-11 
       1.029236010098e+04       1.038844759901e-11 
       1.295731367846e+04       5.479992802591e-12 
       1.631229145839e+04       2.887051870324e-12 
       2.053595824156e+04       1.519152818147e-12 
       2.585323968584e+04       7.984462886759e-13 
       3.254730041770e+04       4.191897509486e-13 
       4.097462358113e+04       2.198457440006e-13 
       5.158399486497e+04       1.151829587671e-13 
       6.494040197736e+04       6.028928596571e-14 
       8.175512230141e+04       3.152764735080e-14 
       1.029236010096e+05       1.647248664053e-14 
       1.295731367843e+05       8.599210567731e-15 
       1.631229145836e+05       4.485434604190e-15 
       2.053595824151e+05       2.337818781357e-15 
       2.585323968578e+05       1.217560557253e-15 
       3.254730041762e+05       6.336596001392e-16 
       4.097462358103e+05       3.295481003762e-16 
       5.158399486485e+05       1.712734093807e-16 
       6.494040197721e+05       8.895693546915e-17 
       8.175512230122e+05       4.617408306589e-17 
       1.029236010093e+06       2.395271185652e-17 
       1.295731367840e+06       1.241817901929e-17 
       1.631229145832e+06       6.434523448810e-18 
       2.053595824146e+06       3.332254170032e-18 
       2.585323968572e+06       1.724768217934e-18 
       3.254730041755e+06       8.922807328200e-19 
       4.097462358094e+06       4.613785163854e-19 
       5.158399486473e+06       2.384541609877e-19 
       6.494040197705e+06       1.231829022475e-19 
       8.175512230102e+06       6.360627643964e-20 
       1.029236010091e+07       3.282912324702e-20 
       1.295731367837e+07       1.693689815727e-20 
       1.631229145828e+07       8.734318404191e-21 
       2.053595824142e+07       4.502458984177e-21 
       2.585323968566e+07       2.320069270724e-21 
       3.254730041747e+07       1.195053148992e-21 
       4.097462358084e+07       6.153369920287e-22 
       5.158399486461e+07       3.167252135882e-22 
       6.494040197690e+07       1.629671863010e-22 
       8.175512230083e+07       8.382422747210e-23 
       1.029236010088e+08       4.310172081204e-23 
       1.295731367834e+08       2.215536798170e-23 
       1.631229145824e+08       1.138481947034e-23 
       2.053595824137e+08       5.848433223794e-24 
       2.585323968559e+08       3.003463715622e-24 
       3.254730041739e+08       1.541976848656e-24 
       4.097462358074e+08       7.914235273065e-25 
       5.158399486449e+08       4.060865671824e-25 
       6.494040197675e+08       2.083097876296e-25 
       8.175512230064e+08       1.068279361633e-25 
       1.029236010086e+09       5.477050455163e-26 
       1.295731367830e+09       2.807358849258e-26 
       1.631229145820e+09       1.438602664727e-26 
       2.053595824132e+09       7.370176888887e-27 
       2.585323968553e+09       3.774951552631e-27 
       3.254730041732e+09       1.933051831813e-27 
       4.097462358065e+09       9.896381222193e-28 
       5.158399486437e+09       5.065382217708e-28 
       6.494040197660e+09       2.592107062336e-28 
       8.175512230045e+09       1.326174025134e-28 
       1.029236010083e+10       6.783547446581e-29 
       1.295731367827e+10       3.469155968994e-29 
       1.631229145816e+10       1.773793993497e-29 
       2.053595824127e+10       9.067689979460e-30 
       2.585323968547e+10       4.634532781753e-30 
       3.254730041724e+10       2.368278098464e-30 
       4.097462358055e+10       1.209980776768e-30 
       5.158399486425e+10       6.180801773534e-31 
       6.494040197644e+10       3.156699421129e-31 
       8.175512230025e+10       1.611926265224e-31 
       1.029236010081e+11       8.229663055462e-32 
       1.295731367824e+11       4.200928157379e-32 
       1.631229145813e+11       2.144055933347e-32 
       2.053595824122e+11       1.094097249552e-32 
       2.585323968541e+11       5.582207402989e-33 
       3.254730041716e+11       2.847655648610e-33 
       4.097462358046e+11       1.452451490952e-33 
       5.158399486412e+11       7.407124339304e-34 
       6.494040197629e+11       3.776874952678e-34 
       8.175512230006e+11       1.925536081903e-34 
       1.029236010079e+12       9.815397281807e-35 
