# Matter power spectrum P(k) at redshift z=3
# for k=9.88592e-06 to 6244.03 h/Mpc,
# number of wavenumbers equal to 150
#    1:k (h/Mpc)              2:P (Mpc/h)^3        
       9.885921723676e-06       6.217523827215e+00 
       1.244563807694e-05       7.760985824502e+00 
       1.566813004106e-05       9.687595484957e+00 
       1.972500706398e-05       1.209245748240e+01 
       2.483231264067e-05       1.509427685946e+01 
       3.126202941695e-05       1.884120763036e+01 
       3.935656325726e-05       2.351814499640e+01 
       4.954697760545e-05       2.935581076234e+01 
       6.237594918509e-05       3.664205650867e+01 
       7.852666751390e-05       4.573590577733e+01 
       9.885921723675e-05       5.708494178770e+01 
       1.244563807694e-04       7.124674254790e+01 
       1.566813004106e-04       8.891510653462e+01 
       1.972500706398e-04       1.109517565132e+02 
       2.483231264067e-04       1.384239228845e+02 
       3.126202941695e-04       1.726474733874e+02 
       3.935656325726e-04       2.152337274612e+02 
       4.954697760545e-04       2.681353438844e+02 
       6.237594918509e-04       3.336824962218e+02 
       7.852666751390e-04       4.145957885190e+02 
       9.885921723676e-04       5.139598654799e+02 
       1.244563807694e-03       6.351434481615e+02 
       1.566813004106e-03       7.816229323517e+02 
       1.972500706398e-03       9.567201572744e+02 
       2.483231264067e-03       1.162959425497e+03 
       3.126202941695e-03       1.401216245313e+03 
       3.935656325726e-03       1.669602091910e+03 
       4.954697760545e-03       1.961954350227e+03 
       6.237594918509e-03       2.266125257081e+03 
       7.852666751390e-03       2.562081344422e+03 
       9.885921723676e-03       2.820152341865e+03 
       1.244563807694e-02       3.000118352223e+03 
       1.566813004103e-02       3.053622082419e+03 
       1.972500691722e-02       2.934688236587e+03 
       2.483219893997e-02       2.625270822482e+03 
       3.124606548500e-02       2.175115772100e+03 
       3.881844084727e-02       1.737673873934e+03 
       4.523125502241e-02       1.493600340082e+03 
       4.987699665853e-02       1.377322142052e+03 
       5.370347098814e-02       1.306688245900e+03 
       5.711779250733e-02       1.254268012544e+03 
       6.030104567423e-02       1.208689160791e+03 
       6.334890855192e-02       1.164260202233e+03 
       6.631867857662e-02       1.117958369580e+03 
       6.924795689376e-02       1.068348410932e+03 
       7.216322366415e-02       1.015107741899e+03 
       7.508422286057e-02       9.587470755633e+02 
       7.802639672242e-02       9.003952353105e+02 
       8.100232729463e-02       8.415984272354e+02 
       8.402263519646e-02       7.841068904616e+02 
       8.709656403040e-02       7.296631765822e+02 
       9.023237376539e-02       6.798063486699e+02 
       9.343761322107e-02       6.357281152764e+02 
       9.671931330467e-02       5.981161019358e+02 
       1.000841266847e-01       5.671193588267e+02 
       1.035384302688e-01       5.423214593741e+02 
       1.070884012291e-01       5.227442324918e+02 
       1.107400738247e-01       5.069189910966e+02 
       1.144993820489e-01       4.930129516811e+02 
       1.183721916850e-01       4.790349833378e+02 
       1.223643244074e-01       4.631430948343e+02 
       1.264815759351e-01       4.440023642322e+02 
       1.307297298224e-01       4.211081566781e+02 
       1.351145681963e-01       3.949502099890e+02 
       1.396418805644e-01       3.669310580448e+02 
       1.443174716980e-01       3.390277036597e+02 
       1.491471695199e-01       3.133091263115e+02 
       1.541368338794e-01       2.913996215563e+02 
       1.592923670653e-01       2.740830799167e+02 
       1.646197268913e-01       2.611326781356e+02 
       1.701249431743e-01       2.513281207847e+02 
       1.758141384179e-01       2.429060430940e+02 
       1.816935535092e-01       2.338011234430e+02 
       1.877695792410e-01       2.224513477594e+02 
       1.940487944814e-01       2.085672238540e+02 
       2.005380118470e-01       1.932164462302e+02 
       2.072443317862e-01       1.781676524519e+02 
       2.141752060774e-01       1.650224858380e+02 
       2.213385118784e-01       1.546433478707e+02 
       2.287426376760e-01       1.468428646708e+02 
       2.363965827680e-01       1.404017439815e+02 
       2.443100723065e-01       1.337654086751e+02 
       2.524936904671e-01       1.259751854716e+02 
       2.609590350172e-01       1.171323765305e+02 
       2.697188974998e-01       1.082860464496e+02 
       2.787874744944e-01       1.006317476524e+02 
       2.881806170658e-01       9.453464155883e+01 
       2.979161277075e-01       8.943369134192e+01 
       3.080141170358e-01       8.438829403305e+01 
       3.184974364903e-01       7.883684631560e+01 
       3.293922087801e-01       7.309945635086e+01 
       3.407284854431e-01       6.784849314178e+01 
       3.525410716466e-01       6.341887520597e+01 
       3.648705737716e-01       5.944064780933e+01 
       3.777647477988e-01       5.543168027474e+01 
       3.912802598815e-01       5.134774959129e+01 
       4.054850210534e-01       4.753086846439e+01 
       4.204613363313e-01       4.411716277054e+01 
       4.363102327885e-01       4.090333910696e+01 
       4.531575338953e-01       3.769949024177e+01 
       4.711625881618e-01       3.463826349165e+01 
       4.905311525603e-01       3.181356896701e+01 
       5.115350013905e-01       2.906599494177e+01 
       5.345428500106e-01       2.639990052819e+01 
       5.600711830502e-01       2.385900770865e+01 
       5.888719591788e-01       2.136604961784e+01 
       6.220928723864e-01       1.892982000089e+01 
       6.615905751730e-01       1.650566634225e+01 
       7.105916730492e-01       1.406500707399e+01 
       7.752002701040e-01       1.155432350045e+01 
       8.679610486623e-01       8.926696705409e+00 
       1.014515674258e+00       6.223594365265e+00 
       1.248032719333e+00       3.825877881133e+00 
       1.568471271881e+00       2.216149971364e+00 
       1.974536054330e+00       1.267273701238e+00 
       2.485793417009e+00       7.188143422730e-01 
       3.129428501037e+00       4.047656057719e-01 
       3.939717064348e+00       2.264170323145e-01 
       4.959809927587e+00       1.258914892809e-01 
       6.244030755509e+00       6.961160179322e-02 
       7.860768990134e+00       3.829759900075e-02 
       9.896121837923e+00       2.097203141681e-02 
       1.245847925997e+01       1.143487034397e-02 
       1.568429613269e+01       6.209990877120e-03 
       1.974535896755e+01       3.359839904719e-03 
       2.485793416925e+01       1.811407892369e-03 
       3.129428501037e+01       9.732634099630e-04 
       3.939717064348e+01       5.211997757963e-04 
       4.959809927587e+01       2.781616490001e-04 
       6.244030755509e+01       1.479230846388e-04 
       7.860768990134e+01       7.834714343220e-05 
       9.896121837923e+01       4.129675849107e-05 
       1.245847925997e+02       2.163466690494e-05 
       1.568429613269e+02       1.124244839445e-05 
       1.974535896755e+02       5.777697090666e-06 
       2.485793416925e+02       2.924776120428e-06 
       3.129428501037e+02       1.451340633763e-06 
       3.939717064348e+02       7.029594339615e-07 
       4.959809927587e+02       3.319457866321e-07 
       6.244030755509e+02       1.536406491631e-07 
       7.860768990134e+02       7.045405656586e-08 
       9.896121837923e+02       3.231891201210e-08 
       1.245847925997e+03       1.495986574535e-08 
       1.568429613269e+03       7.102765334569e-09 
       1.974535896755e+03       3.530754166415e-09 
       2.485793416925e+03       1.848560310371e-09 
       3.129428501037e+03       9.813383578058e-10 
       3.939717064348e+03       4.923422693437e-10 
       4.959809927587e+03       2.426860215016e-10 
       6.244030755509e+03       1.315102894287e-10 
       7.860768990136e+03       6.898915175995e-11 
       9.896121837926e+03       3.613946277229e-11 
       1.245847925998e+04       1.890576526945e-11 
       1.568429613270e+04       9.877521521718e-12 
       1.974535896756e+04       5.154305703168e-12 
       2.485793416926e+04       2.686495910401e-12 
       3.129428501040e+04       1.398683982089e-12 
       3.939717064352e+04       7.274319957935e-13 
       4.959809927593e+04       3.779419368223e-13 
       6.244030755516e+04       1.961719110343e-13 
       7.860768990145e+04       1.017291828842e-13 
       9.896121837938e+04       5.270697631595e-14 
       1.245847925999e+05       2.728476693853e-14 
       1.568429613272e+05       1.411291846672e-14 
       1.974535896759e+05       7.294101772808e-15 
       2.485793416929e+05       3.767023799275e-15 
       3.129428501043e+05       1.944056488423e-15 
       3.939717064357e+05       1.002570883510e-15 
       4.959809927599e+05       5.166876342237e-16 
       6.244030755524e+05       2.661082301095e-16 
       7.860768990154e+05       1.369669350328e-16 
       9.896121837950e+05       7.045466917314e-17 
       1.245847926001e+06       3.622007736218e-17 
       1.568429613274e+06       1.860985590400e-17 
       1.974535896761e+06       9.556497804271e-18 
       2.485793416932e+06       4.904834051689e-18 
       3.129428501047e+06       2.516094732102e-18 
       3.939717064362e+06       1.290071402743e-18 
       4.959809927605e+06       6.611366737851e-19 
       6.244030755531e+06       3.386615076699e-19 
       7.860768990163e+06       1.733977983286e-19 
       9.896121837961e+06       8.874221582698e-20 
       1.245847926002e+07       4.539744907563e-20 
       1.568429613275e+07       2.321413092361e-20 
       1.974535896763e+07       1.186583453191e-20 
       2.485793416935e+07       6.062809112819e-21 
       3.129428501051e+07       3.096591513081e-21 
       3.939717064366e+07       1.581003534472e-21 
       4.959809927610e+07       8.069097441152e-22 
       6.244030755539e+07       4.116843965650e-22 
       7.860768990173e+07       2.099689860233e-22 
       9.896121837973e+07       1.070535339872e-22 
       1.245847926004e+08       5.456393100059e-23 
       1.568429613277e+08       2.780178062404e-23 
       1.974535896766e+08       1.416137079521e-23 
       2.485793416938e+08       7.211190617063e-24 
       3.129428501055e+08       3.670969832196e-24 
       3.939717064371e+08       1.868227929659e-24 
       4.959809927616e+08       9.505107855199e-25 
       6.244030755546e+08       4.834651991837e-25 
       7.860768990182e+08       2.458425803414e-25 
       9.896121837985e+08       1.249785139752e-25 
       1.245847926005e+09       6.351883536286e-26 
       1.568429613279e+09       3.227461618478e-26 
       1.974535896768e+09       1.639507563466e-26 
       2.485793416941e+09       8.326487843318e-27 
       3.129428501058e+09       4.227743261766e-27 
       3.939717064376e+09       2.146129135957e-27 
       4.959809927622e+09       1.089195109156e-27 
       6.244030755554e+09       5.526626725466e-28 
       7.860768990192e+09       2.803633041242e-28 
       9.896121837997e+09       1.421970872821e-28 
       1.245847926007e+10       7.210586244077e-29 
       1.568429613281e+10       3.655633002997e-29 
       1.974535896770e+10       1.852970404780e-29 
       2.485793416944e+10       9.390526570775e-30 
       3.129428501062e+10       4.758045808226e-30 
       3.939717064380e+10       2.410383219553e-30 
       4.959809927628e+10       1.220854539920e-30 
       6.244030755561e+10       6.182492591455e-31 
       7.860768990201e+10       3.130304626824e-31 
       9.896121838009e+10       1.584653590944e-31 
       1.245847926008e+11       8.020624682602e-32 
       1.568429613283e+11       4.058910856082e-32 
       1.974535896773e+11       2.053712295963e-32 
       2.485793416947e+11       1.038962176874e-32 
       3.129428501066e+11       5.255223061036e-33 
       3.939717064385e+11       2.657755717697e-33 
       4.959809927634e+11       1.343917569891e-33 
       6.244030755568e+11       6.794617463777e-34 
       7.860768990210e+11       3.434735619596e-34 
       9.896121838021e+11       1.736035601558e-34 
       1.245847926010e+12       8.773280403063e-35 
