# Matter power spectrum P(k) at redshift z=15.5
# for k=1.02819e-05 to 10292.4 h/Mpc,
# number of wavenumbers equal to 152
#    1:k (h/Mpc)              2:P (Mpc/h)^3        
       1.028186309556e-05       2.245231078664e-01 
       1.294409873158e-05       2.826576282028e-01 
       1.629565482596e-05       3.558444439432e-01 
       2.051501396223e-05       4.479807632400e-01 
       2.582687240037e-05       5.639726700349e-01 
       3.251410597199e-05       7.099961405904e-01 
       4.093283424990e-05       8.938254287254e-01 
       5.153138521396e-05       1.125246068575e+00 
       6.487417035081e-05       1.416573983131e+00 
       8.167174162370e-05       1.783307348507e+00 
       1.028186309556e-04       2.244943944690e+00 
       1.294409873158e-04       2.826003574347e+00 
       1.629565482596e-04       3.557302167037e+00 
       2.051501396223e-04       4.477529787157e+00 
       2.582687240037e-04       5.635185871083e+00 
       3.251410597199e-04       7.090914068951e+00 
       4.093283424990e-04       8.920242774172e+00 
       5.153138521396e-04       1.121664955147e+01 
       6.487417035081e-04       1.409468326588e+01 
       8.167174162370e-04       1.769252913866e+01 
       1.028186309556e-03       2.217281464030e+01 
       1.294409873158e-03       2.771963581054e+01 
       1.629565482596e-03       3.452858323361e+01 
       2.051501396223e-03       4.278912183367e+01 
       2.582687240037e-03       5.265783127976e+01 
       3.251410597199e-03       6.422643367350e+01 
       4.093283424990e-03       7.748100503370e+01 
       5.153138521396e-03       9.222537866051e+01 
       6.487417035081e-03       1.079729232784e+02 
       8.167174162370e-03       1.238505121996e+02 
       1.028186309556e-02       1.384871825646e+02 
       1.294409873158e-02       1.499450664738e+02 
       1.629565482590e-02       1.557933538964e+02 
       2.051501365311e-02       1.535725539286e+02 
       2.582667253972e-02       1.419831239045e+02 
       3.248988695204e-02       1.228630826144e+02 
       4.021880175384e-02       1.033121516717e+02 
       4.652144083979e-02       9.199133332057e+01 
       5.113531061808e-02       8.603360813208e+01 
       5.497442673502e-02       8.207511320499e+01 
       5.841854908973e-02       7.894099741187e+01 
       6.163969256634e-02       7.612574218264e+01 
       6.473002904072e-02       7.337271647614e+01 
       6.774531431751e-02       7.054642144352e+01 
       7.072241628961e-02       6.758467134791e+01 
       7.368745547833e-02       6.447644898205e+01 
       7.666000484630e-02       6.124886687839e+01 
       7.965543770801e-02       5.795693849971e+01 
       8.268632566147e-02       5.467393962864e+01 
       8.576331404303e-02       5.148188682867e+01 
       8.889569325251e-02       4.846165774235e+01 
       9.209178448803e-02       4.568398492725e+01 
       9.535920759703e-02       4.320164069808e+01 
       9.870507141333e-02       4.104321561629e+01 
       1.021361115577e-01       3.920998156586e+01 
       1.056587916662e-01       3.767394816459e+01 
       1.092793785549e-01       3.637955388752e+01 
       1.130039984285e-01       3.524808766257e+01 
       1.168386790778e-01       3.418558949121e+01 
       1.207893815985e-01       3.309526804015e+01 
       1.248620242410e-01       3.189355988450e+01 
       1.290625003803e-01       3.052745224019e+01 
       1.333966921901e-01       2.898779848943e+01 
       1.378704813260e-01       2.731389984856e+01 
       1.424897577513e-01       2.558572712283e+01 
       1.472604277150e-01       2.390495887786e+01 
       1.521884218237e-01       2.237023530191e+01 
       1.572797041003e-01       2.105222623298e+01 
       1.625402828938e-01       1.997498137102e+01 
       1.679762244856e-01       1.910996080955e+01 
       1.735936702284e-01       1.838221879150e+01 
       1.793988580408e-01       1.769241646741e+01 
       1.853981490815e-01       1.694897621696e+01 
       1.915980604284e-01       1.608887707071e+01 
       1.980053046017e-01       1.511870633498e+01 
       2.046268368053e-01       1.410895926302e+01 
       2.114699108172e-01       1.315537349765e+01 
       2.185421445592e-01       1.232759648217e+01 
       2.258515965236e-01       1.164794537142e+01 
       2.334068544475e-01       1.108784467450e+01 
       2.412171379337e-01       1.057789070486e+01 
       2.492924171242e-01       1.004384256234e+01 
       2.576435500978e-01       9.455123979735e+00 
       2.662824424022e-01       8.836819053678e+00 
       2.752222331166e-01       8.246029061370e+00 
       2.844775131425e-01       7.733063813340e+00 
       2.940645831437e-01       7.300357415534e+00 
       3.040017608552e-01       6.906408445067e+00 
       3.143097505674e-01       6.508743995968e+00 
       3.250120917842e-01       6.093342940951e+00 
       3.361357098084e-01       5.686067376196e+00 
       3.477115990261e-01       5.317460283700e+00 
       3.597756809812e-01       4.990852322944e+00 
       3.723698955839e-01       4.682545078957e+00 
       3.855436075238e-01       4.373561315783e+00 
       3.993554452615e-01       4.071462189804e+00 
       4.138757435632e-01       3.791114864166e+00 
       4.291898437481e-01       3.531366825958e+00 
       4.454026382203e-01       3.281415154656e+00 
       4.626449623634e-01       3.036840196837e+00 
       4.810828019284e-01       2.804754358154e+00 
       5.009309209595e-01       2.585218158462e+00 
       5.224736704039e-01       2.370964088076e+00 
       5.460979262521e-01       2.164154681075e+00 
       5.723474651910e-01       1.963947568943e+00 
       6.020172733138e-01       1.767062329739e+00 
       6.363269206526e-01       1.573117577107e+00 
       6.772618081761e-01       1.378695151139e+00 
       7.282988925093e-01       1.180963284911e+00 
       7.960727852782e-01       9.753541227169e-01 
       8.942998125020e-01       7.574409494555e-01 
       1.050618116200e+00       5.312297101636e-01 
       1.297349434593e+00       3.313306607835e-01 
       1.631255788595e+00       1.967375589333e-01 
       2.053595908975e+00       1.155574737523e-01 
       2.585323968624e+00       6.739312972003e-02 
       3.254730041774e+00       3.906516296677e-02 
       4.097462358120e+00       2.252987409909e-02 
       5.158399486507e+00       1.294171277609e-02 
       6.494040197750e+00       7.413411469851e-03 
       8.175512230160e+00       4.241039558166e-03 
       1.029236010098e+01       2.427460513001e-03 
       1.295731367846e+01       1.393382910525e-03 
       1.631229145840e+01       8.045302762548e-04 
       2.053595824158e+01       4.690177324132e-04 
       2.585323968587e+01       2.773043984764e-04 
       3.254730041774e+01       1.670991333550e-04 
       4.097462358120e+01       1.031040621382e-04 
       5.158399486507e+01       6.537602842369e-05 
       6.494040197750e+01       4.266485467738e-05 
       8.175512230160e+01       2.862428768008e-05 
       1.029236010098e+02       1.966616763533e-05 
       1.295731367846e+02       1.375088777432e-05 
       1.631229145840e+02       9.709417678591e-06 
       2.053595824158e+02       6.864873442937e-06 
       2.585323968587e+02       4.819762099735e-06 
       3.254730041774e+02       3.335323091505e-06 
       4.097462358120e+02       2.261654509976e-06 
       5.158399486507e+02       1.497115920850e-06 
       6.494040197750e+02       9.659608813260e-07 
       8.175512230160e+02       6.077081131102e-07 
       1.029236010098e+03       3.734337942096e-07 
       1.295731367846e+03       2.247662671110e-07 
       1.631229145840e+03       1.329819969883e-07 
       2.053595824158e+03       7.761754007830e-08 
       2.585323968587e+03       4.483657805521e-08 
       3.254730041774e+03       2.569916404361e-08 
       4.097462358120e+03       1.464381968244e-08 
       5.158399486507e+03       8.307931265074e-09 
       6.494040197750e+03       4.698401492367e-09 
       8.175512230160e+03       2.650956306607e-09 
       1.029236010098e+04       1.493216302827e-09 
